gene	variety	group1	group1.ave	group2	group2.ave	logFC	Q	description
Solyc08g081810.3	Heinz	H.C	0	H.S	0.751	7.555	4.87e-05	Cation/H(+) antiporter 17 (AHRD V3.3 *** A0A2G2XJX1_CAPBA)
Solyc12g006160.2	Heinz	H.C	0.0194	H.S	0.555	4.518	0.00254	Sterile alpha motif (SAM) domain-containing protein (AHRD V3.3 *** AT3G07760.5)
Solyc08g062340.3	Heinz	H.C	0.0671	H.S	0.971	3.733	1.08e-06	17.9 kDa class II heat shock protein (AHRD V3.3 *** A0A2G3A1B9_CAPAN)
Solyc03g113930.3	Heinz	H.C	0.0388	H.S	0.661	3.567	0.00612	22.0 kDa class IV heat shock protein (AHRD V3.3 *** A0A2G3ATG3_CAPCH)
Solyc11g020330.1	Heinz	H.C	0.0485	H.S	0.577	3.458	0.00874	leer-sHSP small heat shock protein
Solyc09g015000.4	Heinz	H.C	0.059	H.S	0.652	3.262	0.00347	Class I heat shock protein (AHRD V3.3 *** A0A2K3KSJ8_TRIPR)
Solyc08g062960.4	Heinz	H.C	0.0978	H.S	0.923	2.997	0.000152	Heat shock transcription factor (AHRD V3.3 *-* A0A1Y1I763_KLENI)
Solyc09g015010.2	Heinz	H.C	0.137	H.S	0.921	2.553	0.00575	Gag-asp_proteas domain-containing protein (AHRD V3.3 *-* A0A1Q3CQ35_CEPFO)
Solyc09g073015.1	Heinz	H.C	0.185	H.S	0.967	2.482	0.00197	Flavin-containing monooxygenase (AHRD V3.3 *-* A0A2G2YF03_CAPAN)
Solyc11g071830.2	Heinz	H.C	0.562	H.S	2.62	2.398	1.64e-11	DnaJ protein like (AHRD V3.3 *** A0A2I0X6P9_9ASPA)
Solyc09g092690.3	Heinz	H.C	0.323	H.S	1.69	2.101	7.46e-05	Peptidylprolyl isomerase (AHRD V3.3 *** A0A2G2W2H8_CAPBA)
Solyc03g117630.1	Heinz	H.C	1.46	H.S	6.32	2.059	4.93e-21	Heat shock 70 kDa protein (AHRD V3.3 *** A0A1U8FVW2_CAPAN)
Solyc01g102960.3	Heinz	H.C	0.634	H.S	2.62	1.991	3.94e-08	22.0 kDa class IV heat shock protein (AHRD V3.3 *** A0A2G3ATG3_CAPCH)
Solyc06g076570.4	Heinz	H.C	0.237	H.S	1.11	1.984	0.00433	Class I heat shock protein (AHRD V3.3 *** A0A2K3M3P7_TRIPR)
Solyc06g076560.2	Heinz	H.C	0.57	H.S	2.1	1.898	6.42e-06	Class I heat shock protein (AHRD V3.3 *** A0A2K3M3P7_TRIPR)
Solyc06g083190.4	Heinz	H.C	0.296	H.S	1.05	1.877	0.00492	Peptidylprolyl isomerase (AHRD V3.3 *** A0A2G3CCB5_CAPCH)
Solyc01g081250.3	Heinz	H.C	1.23	H.S	3.91	1.593	6.8e-08	Glutathione S-transferase (AHRD V3.3 *** A0A200PVK3_9MAGN)
Solyc01g095330.2	Heinz	H.C	0.729	H.S	1.74	1.548	0.00386	Unknown protein
Solyc03g082420.3	Heinz	H.C	0.557	H.S	1.57	1.527	0.00301	Small heat shock protein, chloroplastic (AHRD V3.3 *** HS21C_SOLLC)
Solyc07g026810.3	Heinz	H.C	1.07	H.S	2.46	1.423	0.000127	Chaperone protein dnaJ (AHRD V3.3 *** A0A2K3P9F4_TRIPR)
Solyc06g007140.4	Heinz	H.C	6.03	H.S	16.4	1.329	3.17e-23	Omega-3 fatty acid desaturase (AHRD V3.3 *** A9LNM9_SOLLC)
Solyc01g095320.4	Heinz	H.C	1.88	H.S	3.93	1.319	9.86e-06	Bag family molecular chaperone regulator 6-like protein (AHRD V3.3 *** A0A2K3PRI9_TRIPR)
Solyc06g036290.3	Heinz	H.C	3.55	H.S	8.99	1.311	1.06e-12	heat shock protein 90
Solyc08g078700.2	Heinz	H.C	1.89	H.S	4.74	1.271	3.1e-06	mitochondrial small heat shock protein
Solyc08g062437.1	Heinz	H.C	0.981	H.S	2.23	1.249	0.00655	17.9 kDa class II heat shock protein (AHRD V3.3 *** A0A2G3CY92_CAPCH)
Solyc01g066410.1	Heinz	H.C	4.16	H.S	9.19	1.162	8.92e-12	Pectinesterase (AHRD V3.3 *-* A0A2G3DFP5_CAPCH)
Solyc03g115230.3	Heinz	H.C	3.61	H.S	7.86	1.153	1.19e-08	Solanum lycopersicum heat shock protein
Solyc04g011440.4	Heinz	H.C	2.2	H.S	4.29	1.091	0.000119	ethylene-responsive heat shock protein cognate 70
Solyc11g066100.2	Heinz	H.C	5.54	H.S	10.9	1.082	7.4e-12	Heat shock protein 70 (AHRD V3.3 *** S8C6K2_9LAMI)
Solyc06g072430.3	Heinz	H.C	3.39	H.S	5.79	0.958	0.000104	BAG family molecular chaperone regulator 5, mitochondrial (AHRD V3.3 *-* A0A2I0XHJ2_9ASPA)
Solyc10g078325.1	Heinz	H.C	6.95	H.S	10.6	0.684	0.000379	Unknown protein
Solyc10g005905.1	Heinz	H.C	32.4	H.S	44.1	0.657	4.08e-15	Unknown protein
Solyc09g091040.3	Heinz	H.C	271	H.S	338	0.444	1.41e-13	late embryogenesis abundant protein 2-like (AHRD V3.3 *** A0A2I4G2D7_9ROSI)
Solyc05g054160.1	Heinz	H.C	151	H.S	181	0.431	3.32e-11	Unknown protein
Solyc10g007270.4	Heinz	H.C	9400	H.S	11200	0.418	1.86e-22	Pollen allergen Ole e 1 family (AHRD V3.3 *** A0A2U1LWI3_ARTAN)
Solyc02g014290.1	Heinz	H.C	469	H.S	594	0.41	1.95e-13	Rapid ALkalinization Factor (AHRD V3.3 *-* K2REH2_MACPH)
Solyc05g012160.3	Heinz	H.C	28.2	H.S	35.1	0.318	0.00655	Protein SPIRAL1-like 2 (AHRD V3.3 *** A0A2G2YD05_CAPAN)
Solyc08g008230.3	Heinz	H.C	121	H.S	142	0.316	2.04e-05	Unknown protein
Solyc09g007780.1	Heinz	H.C	1390	H.S	1660	0.3	3.05e-08	Unknown protein
Solyc06g054000.1	Heinz	H.C	395	H.S	468	0.3	1.4e-06	Unknown protein
Solyc12g014580.2	Heinz	H.C	2390	H.S	2780	0.289	3.23e-08	Major pollen allergen Ole e 6 (AHRD V3.3 *** A0A2G3C3U1_CAPCH)
Solyc06g008650.4	Heinz	H.C	1630	H.S	1890	0.288	1.23e-07	Major pollen allergen Ole e 6 (AHRD V3.3 *** A0A2G2Z6T6_CAPAN)
Solyc08g044540.1	Heinz	H.C	186	H.S	218	0.284	6.24e-05	hypothetical protein (AHRD V3.3 *-* AT3G57450.1)
Solyc07g045200.1	Heinz	H.C	161	H.S	190	0.253	0.00121	Serine-rich protein-like protein (AHRD V3.3 *-* Q9FKU6_ARATH)
Solyc12g042780.2	Heinz	H.C	1440	H.S	1690	0.25	1.6e-05	Cupredoxin (AHRD V3.3 *-* A0A2U1MB64_ARTAN)
Solyc11g042420.2	Heinz	H.C	77.1	H.S	90.5	0.248	0.00973	Cytochrome c (AHRD V3.3 *-* A0A314KZN8_NICAT)
Solyc02g031960.3	Heinz	H.C	114	H.S	133	0.244	0.00508	Pectate lyase (AHRD V3.3 *-* A0A2G3DIQ3_CAPCH)
Solyc06g008667.1	Heinz	H.C	2720	H.S	3060	0.236	2.41e-05	Major pollen allergen Ole e 6 (AHRD V3.3 *** A0A2G3C3U1_CAPCH)
Solyc05g015530.3	Heinz	H.C	666	H.S	766	0.228	0.000751	Endoplasmic reticulum, stress-associated Ramp4 (AHRD V3.3 *** A0A2U1N8N8_ARTAN)
Solyc03g118580.3	Heinz	H.C	327	H.S	373	0.226	0.00231	Bifunctional inhibitor/lipid-transfer protein/seed storage 2S albumin superfamily protein (AHRD V3.3 *-* Q1PFD8_ARATH)
Solyc06g008660.3	Heinz	H.C	1110	H.S	1270	0.212	0.00135	major pollen allergen Ole e 6-like (AHRD V3.3 -** XP_019069903.1)
Solyc06g009140.3	Heinz	H.C	908	H.S	1020	0.209	0.00254	Late embryogenesis abundant protein Lea5 (AHRD V3.3 *** A0A1J3JXG8_NOCCA)
Solyc01g066810.4	Heinz	H.C	5520	H.S	6120	0.208	0.000143	Adenine nucleotide alpha hydrolases-like superfamily protein (AHRD V3.3 *** O82240_ARATH)
Solyc07g062560.3	Heinz	H.C	4670	H.S	5030	0.195	0.000966	Pollen allergen Ole e 1 family (AHRD V3.3 *** A0A2U1LWI3_ARTAN)
Solyc06g008680.3	Heinz	H.C	2400	H.S	2700	0.188	0.00374	Major pollen allergen Ole e 6 (AHRD V3.3 *** A0A2G3C3U1_CAPCH)
Solyc02g064680.4	Heinz	H.C	1330	H.S	1170	-0.196	0.0046	Calcium-transporting ATPase (AHRD V3.3 *** A0A1U8FI07_CAPAN)
Solyc11g005980.3	Heinz	H.C	6370	H.S	5430	-0.232	5.68e-06	Callose synthase (AHRD V3.3 *** K7PRK8_MAIZE)
Solyc05g051830.4	Heinz	H.C	149	H.S	124	-0.256	0.00173	Agamous-like MADS-box protein AGL104 (AHRD V3.3 --* AG104_ARATH)
Solyc03g114110.4	Heinz	H.C	139	H.S	116	-0.262	0.0014	Cyclic nucleotide-gated channel 16 (AHRD V3.3 *** A0A2U1QP75_ARTAN)
Solyc02g078640.3	Heinz	H.C	105	H.S	86.6	-0.272	0.00156	Protein MOR1 (AHRD V3.3 *** A0A2G3D6B7_CAPCH)
Solyc09g074110.4	Heinz	H.C	50.2	H.S	40.7	-0.3	0.00311	Piezo-type mechanosensitive ion channel-like protein (AHRD V3.3 *** A0A2G2ZWF8_CAPAN)
Solyc10g055450.2	Heinz	H.C	42.2	H.S	34	-0.302	0.00655	E3 ubiquitin-protein ligase UPL3 (AHRD V3.3 *** A0A2G3ATT0_CAPCH)
Solyc11g065160.3	Heinz	H.C	39.8	H.S	32.3	-0.308	0.00607	Zinc finger protein (AHRD V3.3 *** A0A200QMM1_9MAGN)
Solyc01g097320.3	Heinz	H.C	44.2	H.S	35.1	-0.335	0.000947	Mediator of RNA polymerase II transcription subunit 14 (AHRD V3.3 *** A0A2G2W775_CAPBA)
Solyc05g015920.3	Heinz	H.C	29.6	H.S	23.3	-0.34	0.00575	GYF domain-containing protein (AHRD V3.3 *** A0A1Q3BTQ2_CEPFO)
Solyc04g080240.4	Heinz	H.C	26.4	H.S	20.8	-0.346	0.00753	GYF domain-containing protein (AHRD V3.3 *-* A0A1Q3BQE0_CEPFO)
Solyc09g065700.3	Heinz	H.C	66.1	H.S	51.4	-0.365	8.62e-06	BEACH domain (AHRD V3.3 *** A0A200Q4J4_9MAGN)
Solyc05g051825.1	Heinz	H.C	30.5	H.S	23.1	-0.415	0.000117	MADS-box transcription factor (AHRD V3.3 *-* A0A2K3PNN3_TRIPR)
Solyc01g094050.1	Heinz	H.C	17.3	H.S	12.7	-0.434	0.00417	WD-40 repeat family protein / beige-like protein (AHRD V3.3 *-* AT2G45540.6)
Solyc02g092950.3	Heinz	H.C	17.5	H.S	10.9	-0.688	2.1e-08	Microtubule-associated protein RP/EB family member 1C (AHRD V3.3 *** A0A2G2XGZ8_CAPBA)
Solyc01g087500.3	Heinz	H.C	9.51	H.S	5.55	-0.777	6.26e-06	DNA topoisomerase 2 (AHRD V3.3 *** A0A2G2XSS9_CAPBA)
Solyc06g084610.4	Heinz	H.C	6.71	H.S	6.37	-0.855	0.00103	Beta-carotene isomerase D27, chloroplastic (AHRD V3.3 *** A0A1J3JUT0_NOCCA)
Solyc05g053570.4	Heinz	H.C	9.52	H.S	4.41	-1.061	2.44e-09	Pleiotropic drug resistance protein (AHRD V3.3 *** C8CA13_CUCSA)
Solyc06g062550.4	Heinz	H.C	3.01	H.S	1.9	-1.165	0.000336	LES459817 putative phosphatase 14A
Solyc08g060920.4	Heinz	H.C	1.83	H.S	0.8	-1.458	0.00109	IDS4-like
Solyc06g073240.3	Heinz	H.C	2.41	H.S	0.497	-1.553	0.00173	Carbohydrate esterase, putative (DUF303) (AHRD V3.3 *** Q0WNN6_ARATH)
Solyc06g062560.2	Heinz	H.C	1.51	H.S	0.758	-1.595	0.00197	phosphatase 14B
Solyc01g104490.3	Heinz	H.C	1.2	H.S	0.345	-1.961	0.000613	Separase (AHRD V3.3 *** A0A1J3GIR9_NOCCA)
Solyc09g010080.3	Heinz	H.C	16.7	H.S	0.942	-3.923	4.52e-99	invertase 5
Solyc09g092690.3	Malintka	M.C	0.15	M.S	1.12	2.838	9.93e-07	Peptidylprolyl isomerase (AHRD V3.3 *** A0A2G2W2H8_CAPBA)
Solyc09g073015.1	Malintka	M.C	0.116	M.S	0.649	2.838	0.00297	Flavin-containing monooxygenase (AHRD V3.3 *-* A0A2G2YF03_CAPAN)
Solyc08g062340.3	Malintka	M.C	0.14	M.S	1.09	2.758	1.74e-05	17.9 kDa class II heat shock protein (AHRD V3.3 *** A0A2G3A1B9_CAPAN)
Solyc03g112140.4	Malintka	M.C	0.244	M.S	1.39	2.524	3e-07	MAP kinase kinase kinase 27
Solyc01g102960.3	Malintka	M.C	0.503	M.S	2.33	2.393	1.22e-12	22.0 kDa class IV heat shock protein (AHRD V3.3 *** A0A2G3ATG3_CAPCH)
Solyc08g062437.1	Malintka	M.C	0.522	M.S	2	1.913	1.72e-07	17.9 kDa class II heat shock protein (AHRD V3.3 *** A0A2G3CY92_CAPCH)
Solyc06g084610.4	Malintka	M.C	2.75	M.S	11.8	1.746	7.1e-24	Beta-carotene isomerase D27, chloroplastic (AHRD V3.3 *** A0A1J3JUT0_NOCCA)
Solyc04g072160.3	Malintka	M.C	0.395	M.S	1.35	1.738	0.000504	ripening regulated protein DDTFR8
Solyc03g117630.1	Malintka	M.C	1.3	M.S	3.84	1.553	2.99e-10	Heat shock 70 kDa protein (AHRD V3.3 *** A0A1U8FVW2_CAPAN)
Solyc01g081250.3	Malintka	M.C	1.62	M.S	4.79	1.427	6.32e-10	Glutathione S-transferase (AHRD V3.3 *** A0A200PVK3_9MAGN)
Solyc08g078700.2	Malintka	M.C	1.56	M.S	4.44	1.373	7.35e-09	mitochondrial small heat shock protein
Solyc06g076520.1	Malintka	M.C	0.609	M.S	1.42	1.305	0.00708	Class I heat shock protein (AHRD V3.3 *** A0A2K3M3P7_TRIPR)
Solyc11g071830.2	Malintka	M.C	0.884	M.S	1.8	1.126	0.00552	DnaJ protein like (AHRD V3.3 *** A0A2I0X6P9_9ASPA)
Solyc06g036290.3	Malintka	M.C	3.44	M.S	8.05	1.109	3.32e-10	heat shock protein 90
Solyc04g011440.4	Malintka	M.C	1.85	M.S	3.31	0.961	0.000796	ethylene-responsive heat shock protein cognate 70
Solyc03g115230.3	Malintka	M.C	3.31	M.S	6.51	0.945	2.52e-06	Solanum lycopersicum heat shock protein
Solyc06g065700.3	Malintka	M.C	1.35	M.S	2.45	0.937	0.00446	WD40 repeat (AHRD V3.3 *** A0A200QHW0_9MAGN)
Solyc12g099770.2	Malintka	M.C	1.8	M.S	3.39	0.87	0.0027	Mitochondrial fission 1 protein (AHRD V3.3 *** A0A2G3B5D8_CAPCH)
Solyc09g066000.1	Malintka	M.C	2.14	M.S	3.69	0.781	0.00363	PRA1 family protein (AHRD V3.3 *** A0A2G2X5X1_CAPBA)
Solyc06g072430.3	Malintka	M.C	3.25	M.S	5.48	0.736	0.00114	BAG family molecular chaperone regulator 5, mitochondrial (AHRD V3.3 *-* A0A2I0XHJ2_9ASPA)
Solyc00g500259.1	Malintka	M.C	83.2	M.S	137	0.71	3.13e-45	Unknown protein
Solyc00g500234.1	Malintka	M.C	71	M.S	117	0.705	1.06e-40	Unknown protein
Solyc11g066100.2	Malintka	M.C	6.4	M.S	10.9	0.702	6.31e-06	Heat shock protein 70 (AHRD V3.3 *** S8C6K2_9LAMI)
Solyc00g500268.1	Malintka	M.C	212	M.S	345	0.692	1.4e-66	Unknown protein
Solyc06g007140.4	Malintka	M.C	3.94	M.S	7.65	0.66	0.00207	Omega-3 fatty acid desaturase (AHRD V3.3 *** A9LNM9_SOLLC)
Solyc03g007890.3	Malintka	M.C	5.84	M.S	8.66	0.64	0.00034	class 2 small heat shock protein Le-HSP17.6
Solyc02g004000.1	Malintka	M.C	56.5	M.S	87.1	0.616	1.03e-26	Regulator of rDNA transcription protein 15 (AHRD V3.3 *-* A0A2G2V0S9_CAPBA)
Solyc05g053450.3	Malintka	M.C	115	M.S	149	0.383	4.21e-14	late embryogenesis abundant protein 1-like (AHRD V3.3 *** A0A2I4DKC7_9ROSI)
Solyc05g015530.3	Malintka	M.C	660	M.S	859	0.374	2.29e-25	Endoplasmic reticulum, stress-associated Ramp4 (AHRD V3.3 *** A0A2U1N8N8_ARTAN)
Solyc10g005905.1	Malintka	M.C	40.6	M.S	52.4	0.37	3.53e-07	Unknown protein
Solyc10g007270.4	Malintka	M.C	10400	M.S	13300	0.342	2.34e-40	Pollen allergen Ole e 1 family (AHRD V3.3 *** A0A2U1LWI3_ARTAN)
Solyc12g044630.2	Malintka	M.C	91.3	M.S	115	0.327	7.08e-09	Profilin (AHRD V3.3 *** A0A1U8F126_CAPAN)
Solyc07g005300.1	Malintka	M.C	24.9	M.S	31	0.316	0.00189	Unknown protein
Solyc02g083440.3	Malintka	M.C	81.5	M.S	100	0.313	1.33e-07	Peptidase A1 (AHRD V3.3 *-* A0A1R3GCG2_COCAP)
Solyc06g053990.1	Malintka	M.C	43.8	M.S	53.6	0.293	0.000125	Unknown protein
Solyc06g009140.3	Malintka	M.C	907	M.S	1110	0.291	2.77e-16	Late embryogenesis abundant protein Lea5 (AHRD V3.3 *** A0A1J3JXG8_NOCCA)
Solyc02g082990.4	Malintka	M.C	25.6	M.S	31.1	0.291	0.00605	Late embryogenesis abundant protein (LEA) family protein (AHRD V3.3 *** A0A2U1ND46_ARTAN)
Solyc01g066810.4	Malintka	M.C	5860	M.S	7180	0.288	1.13e-24	Adenine nucleotide alpha hydrolases-like superfamily protein (AHRD V3.3 *** O82240_ARATH)
Solyc12g014580.2	Malintka	M.C	2810	M.S	3410	0.287	9.62e-21	Major pollen allergen Ole e 6 (AHRD V3.3 *** A0A2G3C3U1_CAPCH)
Solyc09g011790.3	Malintka	M.C	113	M.S	139	0.286	1.48e-07	PAR1-like protein (AHRD V3.3 *** A0A2U1KIG3_ARTAN)
Solyc07g062560.3	Malintka	M.C	4950	M.S	6050	0.285	2.64e-23	Pollen allergen Ole e 1 family (AHRD V3.3 *** A0A2U1LWI3_ARTAN)
Solyc02g014290.1	Malintka	M.C	581	M.S	712	0.283	1.28e-13	Rapid ALkalinization Factor (AHRD V3.3 *-* K2REH2_MACPH)
Solyc08g081970.3	Malintka	M.C	465	M.S	564	0.278	2.64e-12	Arabinogalactan peptide 22 (AHRD V3.3 *** A0A2G3ADM4_CAPAN)
Solyc09g009720.2	Malintka	M.C	103	M.S	125	0.274	1.38e-06	Ubiquitin conjugating enzyme (AHRD V3.3 *** A0A172MJZ4_PAESU)
Solyc05g054160.1	Malintka	M.C	175	M.S	211	0.272	1.63e-08	Unknown protein
Solyc08g005040.1	Malintka	M.C	466	M.S	563	0.269	1.51e-11	hypothetical protein (AHRD V3.3 *** AT5G46770.1)
Solyc06g008650.4	Malintka	M.C	1910	M.S	2300	0.264	5.32e-16	Major pollen allergen Ole e 6 (AHRD V3.3 *** A0A2G2Z6T6_CAPAN)
Solyc06g054000.1	Malintka	M.C	522	M.S	624	0.26	4.53e-11	Unknown protein
Solyc09g091040.3	Malintka	M.C	291	M.S	343	0.256	4.71e-09	late embryogenesis abundant protein 2-like (AHRD V3.3 *** A0A2I4G2D7_9ROSI)
Solyc02g031960.3	Malintka	M.C	133	M.S	158	0.254	2.05e-06	Pectate lyase (AHRD V3.3 *-* A0A2G3DIQ3_CAPCH)
Solyc12g062910.2	Malintka	M.C	1520	M.S	1810	0.254	6.33e-14	Major pollen allergen Ole e 6 (AHRD V3.3 *** A0A2G3CCI9_CAPCH)
Solyc12g009230.3	Malintka	M.C	44.1	M.S	52.6	0.253	0.0021	Oligouridylate binding protein-like protein (AHRD V3.3 *-* S8CVF4_9LAMI)
Solyc01g099820.3	Malintka	M.C	2200	M.S	2640	0.249	1.43e-14	Hypoxia-responsive family protein (AHRD V3.3 *** Q8LG60_ARATH)
Solyc12g014240.3	Malintka	M.C	6070	M.S	7220	0.249	2.02e-18	Pollen Ole e 1 allergen/extensin (AHRD V3.3 *** A0A200QS67_9MAGN)
Solyc06g073010.3	Malintka	M.C	3680	M.S	4380	0.245	7.58e-16	PGPS/D3 (AHRD V3.3 *-* Q9ZTN4_PETHY)
Solyc09g005950.3	Malintka	M.C	42.5	M.S	50.3	0.244	0.00444	Pathogenesis-related protein 1 (AHRD V3.3 *** A0A1J3GAF5_NOCCA)
Solyc01g009250.3	Malintka	M.C	44	M.S	51.8	0.237	0.00566	hypothetical protein (AHRD V3.3 *** AT5G06380.1)
Solyc12g097050.2	Malintka	M.C	53.5	M.S	62.6	0.236	0.0025	Late embryogenesis abundant protein 2 (AHRD V3.3 *** A0A2G2VJ95_CAPBA)
Solyc12g043160.3	Malintka	M.C	203	M.S	238	0.231	1.74e-06	Translation machinery associated TMA7 (AHRD V3.3 *** A0A2U1KUC0_ARTAN)
Solyc08g044540.1	Malintka	M.C	212	M.S	249	0.229	1.73e-06	hypothetical protein (AHRD V3.3 *-* AT3G57450.1)
Solyc06g008667.1	Malintka	M.C	2800	M.S	3280	0.229	7.24e-13	Major pollen allergen Ole e 6 (AHRD V3.3 *** A0A2G3C3U1_CAPCH)
Solyc09g007780.1	Malintka	M.C	1470	M.S	1710	0.221	2.57e-10	Unknown protein
Solyc10g046990.2	Malintka	M.C	592	M.S	687	0.221	3.32e-08	Unknown protein
Solyc12g006080.2	Malintka	M.C	81.1	M.S	95	0.22	0.00117	RPM1-interacting protein 4 (AHRD V3.3 *** A0A2G2WC31_CAPBA)
Solyc06g008680.3	Malintka	M.C	2590	M.S	3010	0.216	2.88e-11	Major pollen allergen Ole e 6 (AHRD V3.3 *** A0A2G3C3U1_CAPCH)
Solyc06g084170.3	Malintka	M.C	1610	M.S	1870	0.215	5.66e-10	Unknown protein
Solyc12g013895.1	Malintka	M.C	531	M.S	617	0.211	3.32e-07	Rapid alkalinization factor (AHRD V3.3 *** S8CZN7_9LAMI)
Solyc06g150132.1	Malintka	M.C	988	M.S	1140	0.209	2.2e-08	Calcium-binding protein (AHRD V3.3 *-* Q9SCA1_LOTJA)
Solyc06g084180.3	Malintka	M.C	2990	M.S	3450	0.207	1.33e-10	Major pollen allergen Ole e 6 (AHRD V3.3 *** A0A2G3CCI9_CAPCH)
Solyc01g005050.4	Malintka	M.C	227	M.S	262	0.204	2.95e-05	CASP-like protein (AHRD V3.3 --* A0A2G3CF58_CAPCH)
Solyc03g095500.3	Malintka	M.C	168	M.S	193	0.204	0.000139	Thioredoxin (AHRD V3.3 *** A0A2G2X4X1_CAPBA)
Solyc03g006360.3	Malintka	M.C	100	M.S	115	0.203	0.00186	Auxin-repressed protein (AHRD V3.3 *** A9YSI8_TOBAC)
Solyc07g045200.1	Malintka	M.C	167	M.S	193	0.201	0.000193	Serine-rich protein-like protein (AHRD V3.3 *-* Q9FKU6_ARATH)
Solyc07g045340.4	Malintka	M.C	128	M.S	147	0.199	0.000852	RPM1-interacting protein 4 (AHRD V3.3 *** A0A2G2WC31_CAPBA)
Solyc01g106600.2	Malintka	M.C	2450	M.S	2810	0.199	2.36e-09	Pathogenesis-related protein 1 (AHRD V3.3 *** E2GEU1_9ROSI)
Solyc11g007150.2	Malintka	M.C	172	M.S	198	0.196	0.000304	Unknown protein
Solyc02g091480.1	Malintka	M.C	661	M.S	756	0.191	2.92e-06	Polcalcin Bet v 4 (AHRD V3.3 *** A0A1U8FWM1_CAPAN)
Solyc08g008230.3	Malintka	M.C	138	M.S	158	0.19	0.00139	Unknown protein
Solyc06g072420.3	Malintka	M.C	4720	M.S	5370	0.188	1.04e-09	Purple acid phosphatase (AHRD V3.3 *** A0A2G2V7G9_CAPBA)
Solyc06g008660.3	Malintka	M.C	1370	M.S	1560	0.188	2.8e-07	major pollen allergen Ole e 6-like (AHRD V3.3 -** XP_019069903.1)
Solyc06g083610.3	Malintka	M.C	109	M.S	124	0.188	0.0043	Late embryogenesis abundant protein (LEA) family protein (AHRD V3.3 *** AT4G13230.1)
Solyc06g068940.4	Malintka	M.C	274	M.S	312	0.185	0.000149	Calcium-dependent lipid-binding (CaLB domain) family protein (AHRD V3.3 *** A0A2U1LMA8_ARTAN)
Solyc01g094320.3	Malintka	M.C	1400	M.S	1590	0.183	5.87e-07	LIM domain-containing protein (AHRD V3.3 *** A0A1Q3C877_CEPFO)
Solyc01g087560.3	Malintka	M.C	214	M.S	243	0.182	0.000485	Methyltransferase (AHRD V3.3 *** A0A2G2XST8_CAPBA)
Solyc05g042170.1	Malintka	M.C	1100	M.S	1240	0.178	3.71e-06	Unknown protein
Solyc12g005840.2	Malintka	M.C	833	M.S	941	0.174	1.68e-05	Ras-related small GTP-binding family protein (AHRD V3.3 *** A0A2U1P8S5_ARTAN)
Solyc03g007470.4	Malintka	M.C	776	M.S	873	0.173	2.68e-05	Ubiquitin conjugating enzyme (AHRD V3.3 *** B3TLN8_ELAGV)
Solyc09g065450.4	Malintka	M.C	1050	M.S	1180	0.17	1.42e-05	Major pollen allergen Ole e 6 (AHRD V3.3 *** A0A2G3CCI9_CAPCH)
Solyc03g043960.3	Malintka	M.C	189	M.S	212	0.168	0.00321	ADP-ribosylation factor-like protein 8A (AHRD V3.3 *** A0A2I4EDC4_9ROSI)
Solyc10g081700.3	Malintka	M.C	407	M.S	457	0.167	0.000373	hypothetical protein (AHRD V3.3 *-* AT2G27180.1)
Solyc01g008950.4	Malintka	M.C	316	M.S	354	0.165	0.000877	Calmodulin 1
Solyc09g092350.1	Malintka	M.C	916	M.S	1020	0.162	7.16e-05	PMEI domain-containing protein (AHRD V3.3 *-* A0A1Q3B489_CEPFO)
Solyc11g044740.2	Malintka	M.C	2160	M.S	2410	0.161	6.72e-06	LIM domain-containing protein (AHRD V3.3 *** A0A1Q3ALK2_CEPFO)
Solyc05g013980.3	Malintka	M.C	2040	M.S	2280	0.157	1.5e-05	anther-specific protein BCP1-like (AHRD V3.3 -** XP_022855050.1)
Solyc10g081670.2	Malintka	M.C	1540	M.S	1720	0.157	3.39e-05	Plant invertase/pectin methylesterase inhibitor superfamily protein (AHRD V3.3 --* AT1G70540.1)
Solyc02g081720.2	Malintka	M.C	372	M.S	415	0.157	0.00155	Polyol transporter 5 (AHRD V3.3 *-* A0A2G2V4U3_CAPBA)
Solyc06g072590.4	Malintka	M.C	345	M.S	385	0.155	0.00217	Unknown protein
Solyc03g006270.3	Malintka	M.C	197	M.S	220	0.154	0.009	RAB GTPase (AHRD V3.3 *** A0A2U1Q460_ARTAN)
Solyc12g010400.2	Malintka	M.C	300	M.S	334	0.154	0.0032	hypothetical protein (AHRD V3.3 *-* AT2G46490.1)
Solyc03g007740.3	Malintka	M.C	695	M.S	773	0.153	0.000505	Reticulon-like protein (AHRD V3.3 *** A0A2G3CWR7_CAPCH)
Solyc06g054470.1	Malintka	M.C	450	M.S	499	0.152	0.00164	proline-rich nuclear receptor coactivator (AHRD V3.3 *** AT3G21570.1)
Solyc09g011800.3	Malintka	M.C	3060	M.S	3400	0.151	1.42e-05	PAR1 (AHRD V3.3 *** A0A200R4T9_9MAGN)
Solyc10g008480.3	Malintka	M.C	336	M.S	373	0.149	0.00398	DUF789 domain-containing protein (AHRD V3.3 *** A0A1Q3CP56_CEPFO)
Solyc01g099770.3	Malintka	M.C	321	M.S	356	0.149	0.00441	meloidogyne-induced giant cell protein DB141
Solyc06g036430.3	Malintka	M.C	1140	M.S	1260	0.147	0.000304	Reticulon-like protein (AHRD V3.3 *** A0A2G3CWR7_CAPCH)
Solyc12g042780.2	Malintka	M.C	1690	M.S	1870	0.143	0.000223	Cupredoxin (AHRD V3.3 *-* A0A2U1MB64_ARTAN)
Solyc04g007840.3	Malintka	M.C	1830	M.S	2020	0.143	0.000187	hypothetical protein (AHRD V3.3 *** AT1G23150.1)
Solyc02g081580.3	Malintka	M.C	653	M.S	721	0.143	0.00197	LRAT domain-containing protein (AHRD V3.3 *** A0A1Q3B136_CEPFO)
Solyc03g080030.4	Malintka	M.C	2780	M.S	3060	0.139	0.000129	major latex allergen Hev b 5-like (AHRD V3.3 *-* XP_004235040.1)
Solyc03g034280.3	Malintka	M.C	3680	M.S	4050	0.138	7.5e-05	GPI-anchored protein LORELEI (AHRD V3.3 *** A0A2I0VKS3_9ASPA)
Solyc02g069300.1	Malintka	M.C	2800	M.S	3090	0.138	0.000157	pectinesterase inhibitor-like (AHRD V3.3 -** A0A1S3B9K9_CUCME)
Solyc05g014700.3	Malintka	M.C	434	M.S	478	0.137	0.00844	Acid phosphatase/vanadium-dependent haloperoxidase-related protein (AHRD V3.3 *** Q9FXC5_ARATH)
Solyc09g091610.3	Malintka	M.C	519	M.S	571	0.136	0.00635	Vesicle-associated membrane protein (AHRD V3.3 *** A0A1U8GH30_CAPAN)
Solyc05g051570.3	Malintka	M.C	723	M.S	794	0.136	0.00358	Rab family GTPase (AHRD V3.3 *** A0A1Y1IFP9_KLENI)
Solyc02g067510.3	Malintka	M.C	671	M.S	736	0.134	0.00504	Actin cross-linking protein, putative (DUF569) (AHRD V3.3 *** Q8GXC9_ARATH)
Solyc03g123390.4	Malintka	M.C	658	M.S	721	0.132	0.00635	Alpha/beta-Hydrolases superfamily protein (AHRD V3.3 *** Q9LNR2_ARATH)
Solyc05g005030.4	Malintka	M.C	1870	M.S	2040	0.125	0.00219	Plant invertase/pectin methylesterase inhibitor superfamily protein (AHRD V3.3 -** AT1G23350.1)
Solyc06g071400.3	Malintka	M.C	7970	M.S	8610	0.112	0.000979	Bidirectional sugar transporter SWEET (AHRD V3.3 *** Q70ET6_SOLLC)
Solyc10g017620.3	Malintka	M.C	5480	M.S	5920	0.11	0.00247	fructokinase AY099454
Solyc10g055470.2	Malintka	M.C	21700	M.S	20300	-0.094	0.00285	Beta-galactosidase (AHRD V3.3 *** A0A2G3BEC1_CAPCH)
Solyc01g056310.3	Malintka	M.C	20300	M.S	19000	-0.097	0.00219	anther-specific LAT51
Solyc07g017560.4	Malintka	M.C	2980	M.S	2760	-0.109	0.00863	Pectinesterase (AHRD V3.3 *** A0A2G3BYR4_CAPCH)
Solyc02g064680.4	Malintka	M.C	1320	M.S	1210	-0.12	0.00778	Calcium-transporting ATPase (AHRD V3.3 *** A0A1U8FI07_CAPAN)
Solyc06g009550.4	Malintka	M.C	1050	M.S	962	-0.122	0.00963	Receptor-like protein kinase ANXUR2 (AHRD V3.3 *-* A0A2G2WHC2_CAPBA)
Solyc04g081060.3	Malintka	M.C	1730	M.S	1590	-0.122	0.00398	Kinesin-like protein NACK1 (AHRD V3.3 *** A0A2G2X190_CAPBA)
Solyc07g005037.1	Malintka	M.C	13900	M.S	12800	-0.123	5.01e-05	Plasma membrane ATPase (AHRD V3.3 *** A0A1U8H8S9_CAPAN)
Solyc08g081820.4	Malintka	M.C	3640	M.S	3340	-0.124	0.000788	Cation/H(+) antiporter 19 (AHRD V3.3 *** A0A2G2XJH4_CAPBA)
Solyc08g016160.3	Malintka	M.C	1850	M.S	1690	-0.128	0.00171	cation/H(+) antiporter 15-like (AHRD V3.3 *** A0A2I4GL35_9ROSI)
Solyc04g009510.4	Malintka	M.C	661	M.S	604	-0.13	0.00959	RNA binding (RRM/RBD/RNP motifs) family protein (AHRD V3.3 *-* Q9M1E4_ARATH)
Solyc01g087450.3	Malintka	M.C	2550	M.S	2330	-0.132	0.000583	Arm repeat superfamily protein (AHRD V3.3 *** A0A2K3NMK6_TRIPR)
Solyc11g008490.3	Malintka	M.C	585	M.S	534	-0.132	0.00938	Pumilio-like protein 2 (AHRD V3.3 *** A0A2G2Y5N2_CAPAN)
Solyc11g044460.3	Malintka	M.C	902	M.S	822	-0.134	0.00341	Proline-rich receptor-like protein kinase PERK7 (AHRD V3.3 *** A0A2G3B9P3_CAPCH)
Solyc07g005033.1	Malintka	M.C	31900	M.S	29000	-0.135	2.47e-07	Plasma membrane ATPase (AHRD V3.3 *** A0A1U8H8S9_CAPAN)
Solyc06g070920.3	Malintka	M.C	965	M.S	880	-0.135	0.00247	ABC transporter A family member 7 (AHRD V3.3 *** A0A2G3AUR7_CAPCH)
Solyc02g086990.4	Malintka	M.C	665	M.S	606	-0.137	0.00424	Cyclic nucleotide-gated ion channel-like protein (AHRD V3.3 *** A0A2K3MW13_TRIPR)
Solyc01g099940.3	Malintka	M.C	4430	M.S	4020	-0.139	5.02e-05	Pectinesterase (AHRD V3.3 *** A0A2G2XYC5_CAPAN)
Solyc09g008000.3	Malintka	M.C	351	M.S	319	-0.143	0.00871	ABC transporter G family member 24 (AHRD V3.3 *** A0A2G3BJ53_CAPCH)
Solyc01g109530.3	Malintka	M.C	1890	M.S	1710	-0.143	0.000223	Proline-rich receptor-like protein kinase PERK7 (AHRD V3.3 *** A0A2G2WA26_CAPBA)
Solyc10g074620.3	Malintka	M.C	890	M.S	805	-0.144	0.00105	Cellulose synthase (AHRD V3.3 *** A0A200PS93_9MAGN)
Solyc02g014530.4	Malintka	M.C	1210	M.S	1090	-0.145	0.000486	glycerophosphodiester phosphodiesterase GDPDL6-like (AHRD V3.3 *** A0A2I4H2H1_9ROSI)
Solyc12g096010.3	Malintka	M.C	1060	M.S	957	-0.145	0.000652	Protein kinase family protein (AHRD V3.3 *** A0A1P8BD07_ARATH)
Solyc06g075580.4	Malintka	M.C	444	M.S	401	-0.145	0.00429	Kinesin (AHRD V3.3 *** A0A200R660_9MAGN)
Solyc10g005220.3	Malintka	M.C	544	M.S	491	-0.148	0.00207	RING/U-box superfamily protein (AHRD V3.3 *-* A0A1P8B041_ARATH)
Solyc06g069130.4	Malintka	M.C	256	M.S	231	-0.15	0.00871	Kinesin-like protein (AHRD V3.3 *** A0A2G2WLN7_CAPBA)
Solyc02g065110.3	Malintka	M.C	348	M.S	314	-0.15	0.00418	MAP kinase kinase kinase 15
Solyc03g098630.4	Malintka	M.C	440	M.S	396	-0.153	0.00189	DUF789 domain-containing protein (AHRD V3.3 *-* A0A1Q3BTC9_CEPFO)
Solyc01g111270.3	Malintka	M.C	454	M.S	408	-0.154	0.00167	Armadillo repeat only 1 (AHRD V3.3 *** Q9SW41_ARATH)
Solyc10g085370.3	Malintka	M.C	300	M.S	269	-0.156	0.00341	Protein phosphatase 2C (AHRD V3.3 *** A0A2U1PMG8_ARTAN)
Solyc04g063230.3	Malintka	M.C	334	M.S	300	-0.157	0.00232	S-adenosyl-L-methionine-dependent methyltransferases superfamily protein (AHRD V3.3 *** A0A2U1PWQ7_ARTAN)
Solyc12g009960.2	Malintka	M.C	1280	M.S	1150	-0.16	5.01e-05	Eukaryotic translation initiation factor isoform 4G-1 (AHRD V3.3 *** A0A2G3BP61_CAPCH)
Solyc06g062950.1	Malintka	M.C	396	M.S	354	-0.161	0.00109	Subtilisin-like protease (AHRD V3.3 *** A0A1J3JR60_NOCCA)
Solyc04g079780.4	Malintka	M.C	906	M.S	811	-0.162	9.85e-05	RBR-type E3 ubiquitin transferase (AHRD V3.3 *** A0A2G2X0V0_CAPBA)
Solyc12g096580.2	Malintka	M.C	440	M.S	393	-0.164	0.000594	Potassium transporter (AHRD V3.3 *** A0A2G2VJC7_CAPBA)
Solyc12g098740.2	Malintka	M.C	948	M.S	847	-0.164	6.5e-05	clathrin interactor EPSIN 2-like (AHRD V3.3 *** A0A2I4ETK3_9ROSI)
Solyc04g082000.4	Malintka	M.C	393	M.S	351	-0.166	0.00064	Phospholipase D (AHRD V3.3 *** K4BVS9_SOLLC)
Solyc04g014380.3	Malintka	M.C	1340	M.S	1200	-0.167	1.5e-05	Kinase-interacting protein 1 (AHRD V3.3 *** A0A2G2V062_CAPBA)
Solyc01g108900.4	Malintka	M.C	7050	M.S	6300	-0.167	4.44e-08	pollen leucine rich repeat domain-extensin
Solyc02g067040.3	Malintka	M.C	409	M.S	365	-0.167	0.000486	Protein ENHANCED DISEASE RESISTANCE 2-like (AHRD V3.3 *** A0A1J3E5X3_NOCCA)
Solyc06g009540.1	Malintka	M.C	1010	M.S	899	-0.169	2.76e-05	Receptor-like protein kinase FERONIA (AHRD V3.3 *** A0A1U8FIN9_CAPAN)
Solyc02g021590.3	Malintka	M.C	328	M.S	291	-0.173	0.000502	Protein male discoverer 2 (AHRD V3.3 *** A0A1J6KDE9_NICAT)
Solyc03g006530.3	Malintka	M.C	637	M.S	564	-0.174	5.89e-05	Hydroxyproline-rich glycoprotein family protein (AHRD V3.3 *-* A0A1P8AWR9_ARATH)
Solyc12g038410.2	Malintka	M.C	163	M.S	145	-0.175	0.00428	Tetraspanin (AHRD V3.3 *** A0A200Q8V3_9MAGN)
Solyc04g080170.3	Malintka	M.C	167	M.S	148	-0.175	0.004	Protein kinase domain (AHRD V3.3 *** A0A200R7I6_9MAGN)
Solyc06g064910.3	Malintka	M.C	466	M.S	413	-0.177	0.000106	T-complex 11 (AHRD V3.3 *** A0A200QKH0_9MAGN)
Solyc10g009140.3	Malintka	M.C	397	M.S	350	-0.177	0.000165	Hydroxyproline-rich glycoprotein family protein (AHRD V3.3 *-* A0A1P8AWR9_ARATH)
Solyc07g066220.3	Malintka	M.C	219	M.S	193	-0.179	0.00103	WRKY transcription factor 2
Solyc06g053750.3	Malintka	M.C	199	M.S	176	-0.181	0.00125	MATH domain-containing protein (AHRD V3.3 *** A0A1Q3BTU7_CEPFO)
Solyc12g010360.2	Malintka	M.C	5270	M.S	4650	-0.182	5.14e-09	Plasma membrane ATPase (AHRD V3.3 *** A0A1U8E8S2_CAPAN)
Solyc08g081980.4	Malintka	M.C	480	M.S	424	-0.182	5.02e-05	Protein kinase family protein (AHRD V3.3 *** Q9FGG5_ARATH)
Solyc07g005810.3	Malintka	M.C	1310	M.S	1160	-0.184	1.04e-06	Eukaryotic translation initiation factor isoform 4G-1 (AHRD V3.3 *** A0A2G3BWP5_CAPCH)
Solyc10g084540.3	Malintka	M.C	256	M.S	225	-0.184	0.000305	Pentatricopeptide repeat (AHRD V3.3 *-* A0A200R560_9MAGN)
Solyc10g074650.2	Malintka	M.C	157	M.S	138	-0.184	0.00229	Hexosyltransferase (AHRD V3.3 *** A0A2G2VT42_CAPBA)
Solyc01g109950.4	Malintka	M.C	2000	M.S	1760	-0.185	1.92e-07	Kinase family protein (AHRD V3.3 *** D7MUJ9_ARALL)
Solyc01g100120.4	Malintka	M.C	934	M.S	823	-0.185	3.54e-06	Kinesin-like protein (AHRD V3.3 *** A0A2G2XY75_CAPAN)
Solyc03g034060.4	Malintka	M.C	785	M.S	690	-0.186	5.78e-06	Proline-rich receptor-like protein kinase PERK5 (AHRD V3.3 *** A0A2G3CKX6_CAPCH)
Solyc09g090480.2	Malintka	M.C	1380	M.S	1210	-0.186	5.73e-07	DUF810 domain-containing protein (AHRD V3.3 *** A0A1Q3AX67_CEPFO),Pfam:PF05664
Solyc02g078660.4	Malintka	M.C	433	M.S	380	-0.188	3.44e-05	Hydroxyproline-rich glycoprotein family protein (AHRD V3.3 *-* A0A1P8AWR9_ARATH)
Solyc01g107880.3	Malintka	M.C	211	M.S	185	-0.189	0.000446	Zinc finger, RING-CH-type, Zinc finger, RING/FYVE/PHD-type (AHRD V3.3 *** A0A2U1NZJ9_ARTAN)
Solyc08g081740.3	Malintka	M.C	122	M.S	107	-0.189	0.00409	P-loop containing nucleoside triphosphate hydrolases superfamily protein (AHRD V3.3 *** A0A2U1Q760_ARTAN)
Solyc03g006130.3	Malintka	M.C	635	M.S	556	-0.19	6.94e-06	Protein male discoverer 2 (AHRD V3.3 *** A0A1J6HZQ5_NICAT)
Solyc04g015580.3	Malintka	M.C	263	M.S	230	-0.19	0.000139	Arm repeat superfamily protein (AHRD V3.3 *** A0A2K3NTC9_TRIPR)
Solyc11g065260.3	Malintka	M.C	315	M.S	277	-0.192	6.12e-05	DnaJ domain-containing protein/TPR_1 domain-containing protein/TPR_11 domain-containing protein (AHRD V3.3 *** A0A1Q3BB58_CEPFO)
Solyc12g044920.3	Malintka	M.C	1060	M.S	926	-0.192	6.17e-07	Phospholipid-transporting ATPase (AHRD V3.3 *** A0A1U8F7U0_CAPAN)
Solyc03g119750.4	Malintka	M.C	137	M.S	120	-0.195	0.00164	polarity axis stabilization protein (AHRD V3.3 *** AT1G73930.2)
Solyc07g022910.3	Malintka	M.C	432	M.S	378	-0.195	1.35e-05	Protein WEAK CHLOROPLAST MOVEMENT UNDER BLUE LIGHT 1 (AHRD V3.3 *** A0A2G2VC40_CAPBA)
Solyc02g062330.3	Malintka	M.C	412	M.S	360	-0.196	1.5e-05	Kinesin-like protein (AHRD V3.3 *** A0A2G2XB42_CAPBA)
Solyc06g083960.3	Malintka	M.C	272	M.S	237	-0.198	5.02e-05	Myosin-5 (AHRD V3.3 *** A0A2G2ZEU6_CAPAN)
Solyc12g088830.3	Malintka	M.C	1890	M.S	1650	-0.199	1.27e-08	Protein WEAK CHLOROPLAST MOVEMENT UNDER BLUE LIGHT 1 (AHRD V3.3 *** A0A1U8F3P2_CAPAN)
Solyc08g014580.4	Malintka	M.C	420	M.S	366	-0.201	7.12e-06	type I inositol polyphosphate 5-phosphatase 12-like (AHRD V3.3 *** A0A2I4G632_9ROSI)
Solyc10g085020.3	Malintka	M.C	91.7	M.S	78.1	-0.203	0.00503	Tubulin beta chain (AHRD V3.3 *** A0A1U8EHY4_CAPAN)
Solyc01g087440.3	Malintka	M.C	545	M.S	474	-0.205	1.41e-06	Arm repeat superfamily protein (AHRD V3.3 *-* A0A2K3NTC9_TRIPR)
Solyc05g047550.4	Malintka	M.C	1420	M.S	1240	-0.205	1.36e-08	Protein kinase domain (AHRD V3.3 *** A0A200QZ79_9MAGN)
Solyc09g097830.4	Malintka	M.C	194	M.S	169	-0.207	0.000101	Tetratricopeptide repeat (TPR)-like superfamily protein (AHRD V3.3 *** A0A2U1Q1B2_ARTAN)
Solyc10g054050.3	Malintka	M.C	1230	M.S	1060	-0.208	1.71e-08	Kinase family protein (AHRD V3.3 *** D7MUJ9_ARALL)
Solyc10g050470.3	Malintka	M.C	1360	M.S	1180	-0.209	9.13e-09	Leucine-rich repeat (AHRD V3.3 *-* A0A200R9L9_9MAGN)
Solyc10g086430.3	Malintka	M.C	275	M.S	238	-0.209	1.25e-05	WD40 repeat (AHRD V3.3 *** A0A200QES9_9MAGN)
Solyc08g080520.4	Malintka	M.C	483	M.S	417	-0.213	6.86e-07	DUF810 domain-containing protein (AHRD V3.3 *** A0A1Q3BM37_CEPFO),Pfam:PF05664
Solyc08g008240.3	Malintka	M.C	1080	M.S	926	-0.22	3.89e-09	Protein kinase family protein (AHRD V3.3 *** Q9FGG5_ARATH)
Solyc06g084530.3	Malintka	M.C	114	M.S	97.2	-0.221	0.000438	P-loop containing nucleoside triphosphate hydrolases superfamily protein (AHRD V3.3 *** A0A2U1N2C4_ARTAN)
Solyc09g091460.3	Malintka	M.C	156	M.S	134	-0.221	7.45e-05	PB1 domain-containing protein tyrosine kinase (AHRD V3.3 *-* F4I5S1_ARATH)
Solyc01g095020.3	Malintka	M.C	222	M.S	190	-0.223	7.95e-06	chorismate synthase (AHRD V3.3 *** AT4G01290.2)
Solyc06g082840.4	Malintka	M.C	80.2	M.S	68.6	-0.223	0.00202	Chaperone DnaJ-domain superfamily protein (AHRD V3.3 *-* F4JRF7_ARATH)
Solyc09g074950.3	Malintka	M.C	69.5	M.S	59.4	-0.224	0.00351	P-loop containing nucleoside triphosphate hydrolases superfamily protein (AHRD V3.3 *** A0A2U1N2C4_ARTAN)
Solyc11g044480.2	Malintka	M.C	128	M.S	110	-0.227	0.000138	Arm repeat superfamily protein (AHRD V3.3 *** A0A2K3NTC9_TRIPR)
Solyc05g054480.3	Malintka	M.C	182	M.S	155	-0.227	1.68e-05	Actin (AHRD V3.3 *** A0A2G2VVS8_CAPBA)
Solyc06g070930.3	Malintka	M.C	432	M.S	371	-0.228	1.19e-07	ABC transporter A family member 7 (AHRD V3.3 *-* A0A2G2WRJ6_CAPBA)
Solyc08g065220.3	Malintka	M.C	163	M.S	139	-0.229	2.62e-05	glycine decarboxylase p-protein
Solyc10g080100.3	Malintka	M.C	355	M.S	303	-0.231	1.98e-07	Villin (AHRD V3.3 *** A0A2P5EN25_TREOI)
Solyc09g089560.4	Malintka	M.C	53.8	M.S	45.8	-0.234	0.00567	MATH domain-containing protein (AHRD V3.3 *-* A0A1Q3BTU7_CEPFO)
Solyc01g095730.4	Malintka	M.C	79.4	M.S	67.5	-0.234	0.000971	PAP/OAS1 substrate-binding domain superfamily (AHRD V3.3 *-* F4J4G2_ARATH)
Solyc09g075830.3	Malintka	M.C	52	M.S	44.3	-0.234	0.00646	Protein TIME FOR COFFEE (AHRD V3.3 *-* A0A2K3NUY4_TRIPR)
Solyc02g068490.4	Malintka	M.C	132	M.S	112	-0.238	3.84e-05	Copper-transporting ATPase RAN1 (AHRD V3.3 *** A0A2G3D3S9_CAPCH)
Solyc05g023740.3	Malintka	M.C	2950	M.S	2510	-0.241	4.85e-14	Arabidopsis mei2-like protein
Solyc04g049010.3	Malintka	M.C	73.6	M.S	62.1	-0.243	0.00075	ethylene insensitive 5/7
Solyc12g094490.2	Malintka	M.C	64.8	M.S	54.7	-0.246	0.00109	Polyadenylation and cleavage factor-like protein 4 (AHRD V3.3 *** A0A2G2VIC5_CAPBA)
Solyc01g112350.3	Malintka	M.C	58.3	M.S	49.1	-0.247	0.00172	Brefeldin A-inhibited guanine nucleotide-exchange protein 4 (AHRD V3.3 *** A0A2G2XW39_CAPAN)
Solyc02g082100.4	Malintka	M.C	83.8	M.S	70.3	-0.247	0.000264	RING/U-box superfamily protein (AHRD V3.3 *-* F4IIX4_ARATH)
Solyc02g082660.3	Malintka	M.C	99.9	M.S	84.1	-0.248	8.43e-05	DNA mismatch repair protein MLH3 (AHRD V3.3 *** A0A2G3A9Q9_CAPAN)
Solyc09g092130.3	Malintka	M.C	60.5	M.S	50.1	-0.251	0.00118	Sucrose phosphate synthase (AHRD V3.3 *** A0A0B5L7E2_LILDA)
Solyc05g056220.3	Malintka	M.C	44.9	M.S	37.7	-0.253	0.00503	N6-adenosine-methyltransferase subunit METTL14 (AHRD V3.3 *** A0A2G2ZKU5_CAPAN)
Solyc04g010185.1	Malintka	M.C	37.1	M.S	30.9	-0.262	0.009	hypothetical protein (AHRD V3.3 *-* AT5G13590.4)
Solyc02g087360.4	Malintka	M.C	78	M.S	65	-0.263	0.000112	Paired amphipathic helix protein Sin3-like 1 (AHRD V3.3 *** A0A1U8G0F5_CAPAN)
Solyc02g088290.4	Malintka	M.C	526	M.S	439	-0.263	7.61e-11	ARF guanine-nucleotide exchange factor GNL1 (AHRD V3.3 *** A0A1U8FQ69_CAPAN)
Solyc12g009900.3	Malintka	M.C	244	M.S	203	-0.265	1.36e-08	zein-binding protein (Protein of unknown function%2C DUF593) (AHRD V3.3 *-* AT5G57830.1)
Solyc05g051830.4	Malintka	M.C	200	M.S	166	-0.266	6.94e-08	Agamous-like MADS-box protein AGL104 (AHRD V3.3 --* AG104_ARATH)
Solyc07g052350.3	Malintka	M.C	64.6	M.S	53.5	-0.272	0.000172	Aconitate hydratase (AHRD V3.3 *** A0A200Q7Z0_9MAGN)
Solyc03g112660.3	Malintka	M.C	132	M.S	109	-0.274	8.52e-07	protein MODIFIER OF SNC1 1-like isoform X1 (AHRD V3.3 *** A0A2I4G1G1_9ROSI)
Solyc01g091460.3	Malintka	M.C	38.8	M.S	32	-0.279	0.00292	Brefeldin A-inhibited guanine nucleotide-exchange protein 2 (AHRD V3.3 *** A0A2G2XNT6_CAPBA)
Solyc05g006640.4	Malintka	M.C	52.2	M.S	43	-0.281	0.00037	Phospholipid-transporting ATPase (AHRD V3.3 *** A0A1U8EVI0_CAPAN)
Solyc06g005080.4	Malintka	M.C	55.8	M.S	45.9	-0.283	0.00018	vacuolar protein sorting-associated protein 18 homolog (AHRD V3.3 *** A0A2I4DYA6_9ROSI)
Solyc10g074940.2	Malintka	M.C	340	M.S	279	-0.284	3.82e-11	Phospholipid-transporting ATPase (AHRD V3.3 *** A0A2G2YKN5_CAPAN)
Solyc11g006390.2	Malintka	M.C	45.2	M.S	37	-0.286	0.000752	nuclear pore complex protein NUP1-like (AHRD V3.3 *-* A0A2I4DIV8_9ROSI)
Solyc07g063590.4	Malintka	M.C	129	M.S	106	-0.286	2.61e-07	Myosin-2 (AHRD V3.3 *** A0A2G3C394_CAPCH)
Solyc03g121810.2	Malintka	M.C	112	M.S	91.3	-0.288	7.68e-07	Phospholipid-transporting ATPase (AHRD V3.3 *** A0A2G2ZVU5_CAPAN)
Solyc02g067010.3	Malintka	M.C	28.6	M.S	23.4	-0.291	0.0097	ARF guanine-nucleotide exchange factor GNL1 (AHRD V3.3 *** A0A1U8FQ69_CAPAN)
Solyc05g010120.4	Malintka	M.C	175	M.S	143	-0.295	4.33e-09	Phospholipid-transporting ATPase (AHRD V3.3 *** A0A1U8EJE6_CAPAN)
Solyc09g066140.3	Malintka	M.C	559	M.S	456	-0.296	5.73e-14	myosin-binding protein 1-like (AHRD V3.3 *-* A0A2I4FM60_9ROSI)
Solyc06g084210.3	Malintka	M.C	120	M.S	98.1	-0.296	1.48e-07	Sec24-like transport protein (AHRD V3.3 *** A0A2U1NGT5_ARTAN)
Solyc09g091080.4	Malintka	M.C	246	M.S	201	-0.297	7.8e-11	Myosin-7 (AHRD V3.3 *** A0A2G2ZU45_CAPAN)
Solyc03g118620.3	Malintka	M.C	27.8	M.S	22.4	-0.297	0.00889	Outer arm dynein light chain 1 protein (AHRD V3.3 *-* A0A2U1P5K0_ARTAN)
Solyc11g069820.3	Malintka	M.C	69.1	M.S	55.8	-0.303	9.02e-06	ABC transporter-like (AHRD V3.3 *** A0A200R5R6_9MAGN)
Solyc03g006100.4	Malintka	M.C	33.5	M.S	27.1	-0.304	0.00204	LRR receptor-like serine/threonine-protein kinase EFR (AHRD V3.3 *** A0A1U8GGG3_CAPAN)
Solyc03g123890.4	Malintka	M.C	71.7	M.S	57.8	-0.305	6.12e-06	Calcium-transporting ATPase (AHRD V3.3 *** A0A2G3A3P1_CAPAN)
Solyc01g111680.4	Malintka	M.C	26.4	M.S	21.2	-0.308	0.0073	Ubiquitin-conjugating enzyme (AHRD V3.3 *** A0A200Q025_9MAGN)
Solyc06g074730.4	Malintka	M.C	52.9	M.S	43.3	-0.309	4.58e-05	Argonaute 5
Solyc05g010420.2	Malintka	M.C	55	M.S	43.7	-0.31	3.35e-05	S-adenosylmethionine decarboxylase
Solyc04g049120.4	Malintka	M.C	27.5	M.S	22.5	-0.311	0.00483	Nuclear receptor corepressor 1 (AHRD V3.3 *-* A0A1J3EKK6_NOCCA)
Solyc12g049590.2	Malintka	M.C	83	M.S	66.9	-0.313	7.4e-07	1-phosphatidylinositol-3-phosphate 5-kinase FAB1B (AHRD V3.3 *** A0A2G3B3H7_CAPCH)
Solyc10g079010.3	Malintka	M.C	56.5	M.S	45.6	-0.315	1.57e-05	hypothetical protein (AHRD V3.3 *** AT3G58050.1)
Solyc01g079510.3	Malintka	M.C	52.9	M.S	42.5	-0.317	2.45e-05	WD40 domain-containing protein (AHRD V3.3 *** A0A178W3E8_ARATH)
Solyc08g083300.4	Malintka	M.C	27.9	M.S	22.3	-0.319	0.00331	Ubiquitin carboxyl-terminal hydrolase (AHRD V3.3 *** S8CLS5_9LAMI)
Solyc07g053980.3	Malintka	M.C	157	M.S	126	-0.32	3.59e-10	Callose synthase 12 (AHRD V3.3 *** A0A1U8HBE5_CAPAN)
Solyc01g097320.3	Malintka	M.C	42.1	M.S	33.6	-0.321	0.000142	Mediator of RNA polymerase II transcription subunit 14 (AHRD V3.3 *** A0A2G2W775_CAPBA)
Solyc02g082540.4	Malintka	M.C	46.1	M.S	36.8	-0.326	4.63e-05	Calcium-binding EF hand family protein (AHRD V3.3 *** A0A1P8AQ08_ARATH)
Solyc03g111570.4	Malintka	M.C	182	M.S	146	-0.329	1.46e-11	callose synthase 10 (AHRD V3.3 *** A0A2I4E5T8_9ROSI)
Solyc03g083590.3	Malintka	M.C	113	M.S	90.2	-0.332	3.49e-09	Protein kinase domain (AHRD V3.3 *** A0A200RA50_9MAGN)
Solyc11g033270.2	Malintka	M.C	120	M.S	95.6	-0.333	1.59e-09	MAP kinase kinase kinase 82
Solyc07g042030.2	Malintka	M.C	26.6	M.S	21.1	-0.334	0.00219	Pentatricopeptide repeat-containing protein (AHRD V3.3 *-* A0A2U1MA82_ARTAN)
Solyc06g059960.4	Malintka	M.C	24.1	M.S	19	-0.339	0.00345	Histone-lysine N-methyltransferase ASHH2 (AHRD V3.3 *** A0A2G3C7A5_CAPCH)
Solyc08g077700.3	Malintka	M.C	41.3	M.S	32.7	-0.34	5.01e-05	Eukaryotic translation initiation factor 4G (AHRD V3.3 *** A0A1J3IRB2_NOCCA)
Solyc12g035670.3	Malintka	M.C	29.2	M.S	23.1	-0.34	0.000835	SAC3/GANP/Nin1/mts3/eIF-3 p25 (AHRD V3.3 *** A0A200QLU7_9MAGN)
Solyc06g075020.3	Malintka	M.C	38.9	M.S	30.6	-0.342	7.16e-05	ABC transporter G family member 24 (AHRD V3.3 *** A0A2G2ZDQ8_CAPAN)
Solyc11g006220.2	Malintka	M.C	54.5	M.S	42.9	-0.347	1.59e-06	Myosin family protein (AHRD V3.3 *** A0A2U1N6F7_ARTAN)
Solyc10g007290.4	Malintka	M.C	22.6	M.S	17.5	-0.351	0.00349	phosphoenolpyruvate carboxylase (AHRD V3.3 *** A0A1S3YLC5_TOBAC)
Solyc02g078640.3	Malintka	M.C	101	M.S	78.2	-0.351	1.43e-09	Protein MOR1 (AHRD V3.3 *** A0A2G3D6B7_CAPCH)
Solyc11g017460.3	Malintka	M.C	93.8	M.S	73.3	-0.353	2.53e-09	U-box domain-containing protein 13 (AHRD V3.3 *** A0A1J3H637_NOCCA)
Solyc03g046450.3	Malintka	M.C	26.2	M.S	20.6	-0.354	0.000948	ARM repeat superfamily protein (AHRD V3.3 *** A0A2U1PEI4_ARTAN)
Solyc11g043130.2	Malintka	M.C	23	M.S	17.9	-0.362	0.00175	Phosphatidylinositol 4-kinase alpha 1 (AHRD V3.3 *** A0A2G2VJB2_CAPBA)
Solyc11g005980.3	Malintka	M.C	6550	M.S	5100	-0.364	4.16e-39	Callose synthase (AHRD V3.3 *** K7PRK8_MAIZE)
Solyc04g015110.3	Malintka	M.C	43.6	M.S	33.7	-0.364	5.66e-06	WEAK CHLOROPLAST MOVEMENT UNDER BLUE LIGHT-like protein (DUF827) (AHRD V3.3 *-* A0A1P8AUD2_ARATH)
Solyc07g006030.4	Malintka	M.C	17.3	M.S	13.4	-0.364	0.00963	Tetratricopeptide repeat (TPR)-like superfamily protein (AHRD V3.3 *** A0A2U1MFU8_ARTAN)
Solyc02g086330.4	Malintka	M.C	19.8	M.S	15.3	-0.367	0.00394	HEAT repeat-containing protein-like (AHRD V3.3 *** Q5QMW8_ORYSJ)
Solyc03g120700.3	Malintka	M.C	21.6	M.S	16.7	-0.374	0.00168	Vps51/Vps67 family (Components of vesicular transport) protein (AHRD V3.3 *** F4KCR7_ARATH)
Solyc01g094800.4	Malintka	M.C	32	M.S	24.6	-0.376	5.83e-05	ATP-dependent helicase BRM (AHRD V3.3 *** A0A2G2YXU8_CAPAN)
Solyc11g065160.3	Malintka	M.C	35.9	M.S	27.5	-0.384	1.09e-05	Zinc finger protein (AHRD V3.3 *** A0A200QMM1_9MAGN)
Solyc05g053600.3	Malintka	M.C	397	M.S	302	-0.387	7.84e-22	Pleiotropic drug resistance protein (AHRD V3.3 *** C8CA13_CUCSA)
Solyc06g017970.4	Malintka	M.C	25.4	M.S	19.2	-0.389	0.000243	TRAF-like family protein (AHRD V3.3 *** A0A2U1LVB2_ARTAN)
Solyc03g097260.4	Malintka	M.C	35.2	M.S	26.9	-0.389	9.41e-06	RING/FYVE/PHD zinc finger superfamily protein (AHRD V3.3 *** F4IYH6_ARATH)
Solyc08g080690.4	Malintka	M.C	16.5	M.S	12.5	-0.4	0.00378	Methyl-CpG binding domain protein (AHRD V3.3 *-* A0A2K3NPJ5_TRIPR)
Solyc03g115550.3	Malintka	M.C	40.7	M.S	30.1	-0.404	7.92e-07	Unknown protein
Solyc03g114060.3	Malintka	M.C	16	M.S	11.9	-0.408	0.00372	Bromo adjacent homology (BAH) domain (AHRD V3.3 *** A0A200R0M3_9MAGN)
Solyc03g093430.3	Malintka	M.C	14.3	M.S	11	-0.409	0.00708	Small G protein family protein / RhoGAP family protein (AHRD V3.3 *** A0A2U1Q0F6_ARTAN)
Solyc01g088700.4	Malintka	M.C	16.9	M.S	12.6	-0.412	0.0022	Eukaryotic translation initiation factor 4G (AHRD V3.3 *** A0A2G2XT28_CAPBA)
Solyc11g013530.3	Malintka	M.C	14.9	M.S	11.2	-0.413	0.00457	PHD finger family protein (AHRD V3.3 *** A0A1P8APU9_ARATH)
Solyc03g114110.4	Malintka	M.C	144	M.S	107	-0.422	7.38e-17	Cyclic nucleotide-gated channel 16 (AHRD V3.3 *** A0A2U1QP75_ARTAN)
Solyc01g094060.4	Malintka	M.C	60.9	M.S	45.4	-0.423	2.46e-10	BEACH domain-containing protein (AHRD V3.3 *-* A0A2U1L7V5_ARTAN)
Solyc01g067600.3	Malintka	M.C	35.7	M.S	26.5	-0.428	5.58e-07	Zinc finger, CW-type (AHRD V3.3 *-* A0A2U1Q0A5_ARTAN)
Solyc08g006420.3	Malintka	M.C	18.3	M.S	13.6	-0.433	0.000522	nucleoporin (AHRD V3.3 *** AT4G31570.3)
Solyc01g111530.3	Malintka	M.C	17.5	M.S	12.9	-0.434	0.000796	E3 ubiquitin-protein ligase UPL3 (AHRD V3.3 *** A0A1U8E9F6_CAPAN)
Solyc12g017420.2	Malintka	M.C	23.9	M.S	17.6	-0.434	4.2e-05	ABC transporter-like (AHRD V3.3 *** A0A200R0Y3_9MAGN)
Solyc05g015920.3	Malintka	M.C	37.4	M.S	27.6	-0.435	1.72e-07	GYF domain-containing protein (AHRD V3.3 *** A0A1Q3BTQ2_CEPFO)
Solyc04g011380.4	Malintka	M.C	27.3	M.S	20.1	-0.438	7.95e-06	Zinc finger C3H1 domain protein (AHRD V3.3 *** A0A1P8B0L2_ARATH)
Solyc09g074110.4	Malintka	M.C	56.2	M.S	41.5	-0.438	1.67e-10	Piezo-type mechanosensitive ion channel-like protein (AHRD V3.3 *** A0A2G2ZWF8_CAPAN)
Solyc12g017830.3	Malintka	M.C	17.7	M.S	13.2	-0.443	0.000457	Brefeldin A-inhibited guanine nucleotide-exchange protein 5 (AHRD V3.3 *** A0A2G2ZX29_CAPAN)
Solyc04g080240.4	Malintka	M.C	25.5	M.S	18.8	-0.445	1.13e-05	GYF domain-containing protein (AHRD V3.3 *-* A0A1Q3BQE0_CEPFO)
Solyc06g060160.3	Malintka	M.C	119	M.S	87.1	-0.448	4.32e-17	CELLULOSE SYNTHASE INTERACTIVE 3 (AHRD V3.3 *-* AT1G77460.4)
Solyc06g076930.2	Malintka	M.C	11.1	M.S	8.27	-0.449	0.00887	ABC transporter-like (AHRD V3.3 *** A0A200PWT6_9MAGN)
Solyc12g017430.3	Malintka	M.C	17.8	M.S	13	-0.451	0.000318	ENTH/ANTH/VHS superfamily protein (AHRD V3.3 *-* A0A178W5R2_ARATH)
Solyc03g097710.4	Malintka	M.C	26.5	M.S	19.6	-0.456	3.98e-06	meiosis chromosome segregation family protein (AHRD V3.3 *-* AT3G26890.8)
Solyc01g108160.3	Malintka	M.C	39.6	M.S	28.9	-0.458	1.08e-08	autophagy-related protein 2-like (AHRD V3.3 *** A0A1S4AVK1_TOBAC)
Solyc06g050510.3	Malintka	M.C	23.5	M.S	17	-0.461	1.19e-05	SNF2 domain-containing protein CLASSY 1 (AHRD V3.3 *** A0A1U8GWM4_CAPAN)
Solyc09g082650.4	Malintka	M.C	12.5	M.S	8.9	-0.467	0.00301	1,2-dihydroxy-3-keto-5-methylthiopentene dioxygenase (AHRD V3.3 *** A8UGP3_SOLTU)
Solyc04g077930.4	Malintka	M.C	23.1	M.S	16.3	-0.486	4.38e-06	Activating signal cointegrator 1 complex subunit 2-like protein (AHRD V3.3 *** A0A2K3NPF3_TRIPR)
Solyc08g021920.4	Malintka	M.C	14.1	M.S	10.1	-0.486	0.000583	DnaJ-like protein subfamily C GRV2 (AHRD V3.3 *** A0A2G2YXE7_CAPAN)
Solyc10g076260.2	Malintka	M.C	17.7	M.S	12.6	-0.492	5.79e-05	Regulatory-associated protein of TOR 1 (AHRD V3.3 *** A0A2G3BLG9_CAPCH)
Solyc08g029130.3	Malintka	M.C	33.4	M.S	23.7	-0.5	6.28e-09	Chromatin remodeling factor (AHRD V3.3 *** A0A178UZA8_ARATH)
Solyc04g071660.3	Malintka	M.C	12	M.S	8.29	-0.52	0.000718	hypothetical protein (AHRD V3.3 *-* AT1G76740.1)
Solyc09g091455.1	Malintka	M.C	8.43	M.S	5.82	-0.533	0.0048	Unknown protein
Solyc09g065700.3	Malintka	M.C	80	M.S	55	-0.536	1.89e-19	BEACH domain (AHRD V3.3 *** A0A200Q4J4_9MAGN)
Solyc07g065630.4	Malintka	M.C	17.6	M.S	12	-0.543	6.33e-06	E3 ubiquitin-protein ligase UPL2 (AHRD V3.3 *** A0A2G3C2F6_CAPCH)
Solyc02g068560.3	Malintka	M.C	10.8	M.S	7.32	-0.566	0.000329	Protein CHROMATIN REMODELING 4 (AHRD V3.3 *** A0A2G2XDA8_CAPBA)
Solyc09g014490.4	Malintka	M.C	6.54	M.S	4.45	-0.572	0.00889	flocculation FLO11-like protein (AHRD V3.3 *-* AT2G40070.2)
Solyc09g009370.4	Malintka	M.C	7.08	M.S	4.65	-0.603	0.00277	Calcium-dependent lipid-binding family protein (AHRD V3.3 *-* A0A1P8AMQ8_ARATH)
Solyc08g074520.2	Malintka	M.C	8.28	M.S	5.45	-0.606	0.00081	TATA-binding protein-associated factor BTAF1 (AHRD V3.3 *** A0A2G2XMM1_CAPBA)
Solyc03g124010.3	Malintka	M.C	14.2	M.S	9.27	-0.611	4.09e-06	p-loop containing nucleoside triphosphate hydrolases superfamily protein (AHRD V3.3 *** A0A1P8AT95_ARATH)
Solyc04g076620.4	Malintka	M.C	9.06	M.S	5.88	-0.63	0.000193	E3 ubiquitin-protein ligase UPL2 (AHRD V3.3 *** A0A2G2X032_CAPBA)
Solyc01g094050.1	Malintka	M.C	22	M.S	13.9	-0.654	2.91e-10	WD-40 repeat family protein / beige-like protein (AHRD V3.3 *-* AT2G45540.6)
Solyc02g083900.3	Malintka	M.C	6.81	M.S	4.14	-0.724	0.00018	Transformation/transcription domain associated protein (AHRD V3.3 *** A0A2K3NKS8_TRIPR)
Solyc08g077420.3	Malintka	M.C	3.28	M.S	1.91	-0.776	0.0084	Regulator of nonsense transcripts 1-like protein (AHRD V3.3 *** A0A2G3AF80_CAPAN)
Solyc01g006100.4	Malintka	M.C	3.47	M.S	2.02	-0.793	0.00424	cytosine-5 DNA methyltransferase1L
Solyc04g072760.3	Malintka	M.C	10.5	M.S	5.59	-0.849	3.09e-08	Sulfate transporter (AHRD V3.3 *** S6A1Z9_NICAT)
Solyc02g083640.4	Malintka	M.C	3.2	M.S	1.61	-0.977	0.000359	Protein POLLENLESS 3-LIKE 2 (AHRD V3.3 *** A0A2G3D7L3_CAPCH)
Solyc02g014180.2	Malintka	M.C	5.12	M.S	2.58	-0.982	3.68e-06	Zinc finger C3HC4 type (RING finger) protein (AHRD V3.3 *-* A0A2K3NL88_TRIPR)
Solyc02g014190.4	Malintka	M.C	8.51	M.S	4.26	-1.011	6.5e-10	Zinc finger C3HC4 type (RING finger) protein (AHRD V3.3 *** A0A2K3NPJ4_TRIPR)
Solyc02g092950.3	Malintka	M.C	15.4	M.S	7.56	-1.025	4.82e-17	Microtubule-associated protein RP/EB family member 1C (AHRD V3.3 *** A0A2G2XGZ8_CAPBA)
Solyc01g103990.3	Malintka	M.C	5.18	M.S	2.14	-1.032	1.13e-05	T-complex protein 11 (AHRD V3.3 *** A0A2U1QKZ8_ARTAN)
Solyc03g098050.3	Malintka	M.C	3.14	M.S	1.47	-1.059	0.000731	Calmodulin 6
Solyc10g005970.1	Malintka	M.C	5.11	M.S	2.4	-1.065	2.38e-06	Unknown protein
Solyc01g094930.3	Malintka	M.C	2.5	M.S	1.14	-1.138	0.000207	CAAX prenyl protease 1 (Peptidase family M48) (AHRD V3.3 *** A0A166XK07_9PEZI)
Solyc01g087500.3	Malintka	M.C	8.92	M.S	4.02	-1.148	1.03e-12	DNA topoisomerase 2 (AHRD V3.3 *** A0A2G2XSS9_CAPBA)
Solyc01g094390.2	Malintka	M.C	2	M.S	0.867	-1.231	0.000607	O-glucosyltransferase rumi homolog (AHRD V3.3 *** A0A2I4FGK6_9ROSI)
Solyc12g006950.2	Malintka	M.C	7.11	M.S	3.3	-1.286	1.38e-12	Sulfate transporter-like protein (AHRD V3.3 *** A0A2K3NYV6_TRIPR)
Solyc07g065530.1	Malintka	M.C	1.76	M.S	0.683	-1.374	0.00142	flocculation protein FLO11 (AHRD V3.3 *** XP_004244068.1)
Solyc04g056640.1	Malintka	M.C	1.54	M.S	0.518	-1.564	0.000193	Leucine rich receptor kinase (AHRD V3.3 *** A0A2P5AMX7_TREOI)
Solyc12g007290.1	Malintka	M.C	4.94	M.S	1.62	-1.658	5.23e-12	glutamic acid-rich protein-like (AHRD V3.3 *** XP_010314056.1)
Solyc05g053570.4	Malintka	M.C	20.1	M.S	4.83	-1.794	6.57e-46	Pleiotropic drug resistance protein (AHRD V3.3 *** C8CA13_CUCSA)
Solyc07g062700.3	Malintka	M.C	1.42	M.S	0.422	-1.811	6.72e-05	Calcium-binding EF-hand family protein (AHRD V3.3 *** A0A2U1MZJ3_ARTAN)
Solyc06g075860.3	Malintka	M.C	1.62	M.S	0.452	-1.817	5.85e-05	Protein yippee-like (AHRD V3.3 *-* A0A2I4FWI7_9ROSI)
Solyc05g053610.2	Malintka	M.C	3.94	M.S	1.14	-1.85	4.15e-13	Pleiotropic drug resistance protein (AHRD V3.3 *** C8CA13_CUCSA)
Solyc09g059400.4	Malintka	M.C	1.4	M.S	0.328	-1.915	0.000329	Unknown protein
Solyc04g049860.2	Malintka	M.C	2.28	M.S	0.583	-2.014	4.3e-07	hypothetical protein (AHRD V3.3 *-* AT5G13620.1)
Solyc05g053590.4	Malintka	M.C	7.27	M.S	1.49	-2.075	3.15e-23	Pleiotropic drug resistance protein (AHRD V3.3 *** C8CA13_CUCSA)
Solyc07g066590.1	Malintka	M.C	1.4	M.S	0.183	-2.598	3.68e-06	Unknown protein
Solyc12g011210.1	Malintka	M.C	0.834	M.S	0.122	-2.72	0.000532	Unknown protein
Solyc12g005490.1	Malintka	M.C	0.895	M.S	0.122	-2.779	0.000438	DUF679 domain-containing protein (AHRD V3.3 *** A0A1Q3C1F0_CEPFO)
Solyc03g150101.1	Malintka	M.C	6.48	M.S	0.877	-3.016	6.45e-35	Unknown protein
Solyc12g044750.3	Malintka	M.C	0.941	M.S	0.0748	-3.402	6.94e-06	Pectate lyase (AHRD V3.3 *** A0A2G3B368_CAPCH)
Solyc08g006280.2	Malintka	M.C	4.49	M.S	0.273	-3.483	1.11e-19	Transcriptional factor B3 family protein (AHRD V3.3 *-* A0A1P8AYQ9_ARATH)
Solyc01g112000.4	Malintka	M.C	1.11	M.S	0.102	-3.593	4.27e-07	expansin-like protein precursor 1
Solyc09g010080.3	Malintka	M.C	26.1	M.S	1.23	-4.146	1.85e-169	invertase 5
Solyc06g073000.4	Malintka	M.C	3.09	M.S	0.1	-4.662	6.05e-19	Thaumatin-like protein 1 (AHRD V3.3 *** A0A2G2ZDD9_CAPAN)
Solyc12g056585.1	Malintka	M.C	1.25	M.S	0	-8.194	2.28e-10	HT-protein (AHRD V3.3 *-* Q8LP79_SOLPE)
Solyc09g091770.1	Nagcarlang	N.C	0	N.S	0.446	6.775	0.00461	Unknown protein
Solyc05g010210.1	Nagcarlang	N.C	0.0205	N.S	1.24	5.588	1.81e-12	F-box domain (AHRD V3.3 *-* A0A200QAM7_9MAGN)
Solyc03g113930.3	Nagcarlang	N.C	0.0205	N.S	0.809	5.062	6.46e-07	22.0 kDa class IV heat shock protein (AHRD V3.3 *** A0A2G3ATG3_CAPCH)
Solyc02g066950.4	Nagcarlang	N.C	0.0307	N.S	0.594	4.083	0.0017	Alpha-amylase isozyme 2A (AHRD V3.3 *** A0A2G3A5T2_CAPAN)
Solyc08g062340.3	Nagcarlang	N.C	0.102	N.S	1.33	3.744	3.37e-09	17.9 kDa class II heat shock protein (AHRD V3.3 *** A0A2G3A1B9_CAPAN)
Solyc11g020330.1	Nagcarlang	N.C	0.112	N.S	1.38	3.526	3.29e-09	leer-sHSP small heat shock protein
Solyc09g073015.1	Nagcarlang	N.C	0.0924	N.S	1.01	3.295	1.48e-05	Flavin-containing monooxygenase (AHRD V3.3 *-* A0A2G2YF03_CAPAN)
Solyc09g008970.1	Nagcarlang	N.C	0.154	N.S	1.49	3.2	7.25e-09	plant/protein (AHRD V3.3 *** AT3G10020.1)
Solyc09g092690.3	Nagcarlang	N.C	0.328	N.S	2.55	3.084	2.42e-15	Peptidylprolyl isomerase (AHRD V3.3 *** A0A2G2W2H8_CAPBA)
Solyc03g112140.4	Nagcarlang	N.C	0.359	N.S	2.08	2.878	1.37e-11	MAP kinase kinase kinase 27
Solyc09g015010.2	Nagcarlang	N.C	0.175	N.S	1.2	2.855	6.72e-06	Gag-asp_proteas domain-containing protein (AHRD V3.3 *-* A0A1Q3CQ35_CEPFO)
Solyc02g077670.3	Nagcarlang	N.C	0.163	N.S	1.05	2.737	7.67e-05	DnaJ-like protein (AHRD V3.3 *** Q9SP09_TOBAC)
Solyc03g123540.3	Nagcarlang	N.C	0.287	N.S	1.44	2.609	8.08e-07	17.4 kDa class III heat shock protein (AHRD V3.3 *** A0A2G3D1F4_CAPCH)
Solyc09g010080.3	Nagcarlang	N.C	0.637	N.S	9.11	2.607	1.48e-15	invertase 5
Solyc08g062960.4	Nagcarlang	N.C	0.215	N.S	1.04	2.273	0.00718	Heat shock transcription factor (AHRD V3.3 *-* A0A1Y1I763_KLENI)
Solyc06g076570.4	Nagcarlang	N.C	0.462	N.S	2.01	2.188	3.1e-07	Class I heat shock protein (AHRD V3.3 *** A0A2K3M3P7_TRIPR)
Solyc01g107080.3	Nagcarlang	N.C	0.236	N.S	0.963	2.119	0.00718	HXXXD-type acyl-transferase family protein (AHRD V3.3 *** A0A2K3MRI0_TRIPR)
Solyc03g117630.1	Nagcarlang	N.C	2.72	N.S	10.6	2.062	6.57e-25	Heat shock 70 kDa protein (AHRD V3.3 *** A0A1U8FVW2_CAPAN)
Solyc01g102960.3	Nagcarlang	N.C	1.73	N.S	5.61	2.007	1.08e-15	22.0 kDa class IV heat shock protein (AHRD V3.3 *** A0A2G3ATG3_CAPCH)
Solyc11g071830.2	Nagcarlang	N.C	1.39	N.S	4.24	2.007	1.6e-12	DnaJ protein like (AHRD V3.3 *** A0A2I0X6P9_9ASPA)
Solyc06g076560.2	Nagcarlang	N.C	0.84	N.S	3.15	1.986	1.11e-09	Class I heat shock protein (AHRD V3.3 *** A0A2K3M3P7_TRIPR)
Solyc08g062437.1	Nagcarlang	N.C	1.49	N.S	4.63	1.979	4.84e-13	17.9 kDa class II heat shock protein (AHRD V3.3 *** A0A2G3CY92_CAPCH)
Solyc06g076520.1	Nagcarlang	N.C	1.26	N.S	3.78	1.91	1.29e-10	Class I heat shock protein (AHRD V3.3 *** A0A2K3M3P7_TRIPR)
Solyc06g036290.3	Nagcarlang	N.C	4.12	N.S	14.9	1.885	1.46e-28	heat shock protein 90
Solyc09g075950.1	Nagcarlang	N.C	0.708	N.S	2.06	1.591	0.000255	Heat shock protein 70 kDa (AHRD V3.3 *** A0A2K3P5L8_TRIPR)
Solyc07g026810.3	Nagcarlang	N.C	0.831	N.S	2.81	1.569	2.73e-05	Chaperone protein dnaJ (AHRD V3.3 *** A0A2K3P9F4_TRIPR)
Solyc01g081250.3	Nagcarlang	N.C	3.17	N.S	8.5	1.493	1.33e-12	Glutathione S-transferase (AHRD V3.3 *** A0A200PVK3_9MAGN)
Solyc04g072160.3	Nagcarlang	N.C	1.03	N.S	2.56	1.422	0.000234	ripening regulated protein DDTFR8
Solyc03g115230.3	Nagcarlang	N.C	6.63	N.S	14.4	1.334	6.58e-15	Solanum lycopersicum heat shock protein
Solyc08g078700.2	Nagcarlang	N.C	3.63	N.S	7.75	1.269	5.58e-09	mitochondrial small heat shock protein
Solyc01g095330.2	Nagcarlang	N.C	1.58	N.S	3.1	1.167	0.00222	Unknown protein
Solyc10g047350.2	Nagcarlang	N.C	1.21	N.S	2.58	1.126	0.00816	Lysine-specific histone demethylase 1-like protein 1 (AHRD V3.3 *-* A0A2G3BES3_CAPCH)
Solyc08g067430.4	Nagcarlang	N.C	1.87	N.S	3.87	1.124	0.000336	DNA-directed RNA polymerase subunit beta (AHRD V3.3 *** AT2G25605.1)
Solyc08g006280.2	Nagcarlang	N.C	7.18	N.S	13.6	1.048	1.08e-06	Transcriptional factor B3 family protein (AHRD V3.3 *-* A0A1P8AYQ9_ARATH)
Solyc11g066100.2	Nagcarlang	N.C	11.5	N.S	21.2	1.029	9.65e-12	Heat shock protein 70 (AHRD V3.3 *** S8C6K2_9LAMI)
Solyc04g011440.4	Nagcarlang	N.C	3.51	N.S	6.19	0.999	0.000122	ethylene-responsive heat shock protein cognate 70
Solyc01g095320.4	Nagcarlang	N.C	4.27	N.S	7.37	0.957	0.000101	Bag family molecular chaperone regulator 6-like protein (AHRD V3.3 *** A0A2K3PRI9_TRIPR)
Solyc12g006950.2	Nagcarlang	N.C	6.13	N.S	9.2	0.901	5.21e-05	Sulfate transporter-like protein (AHRD V3.3 *** A0A2K3NYV6_TRIPR)
Solyc02g065640.3	Nagcarlang	N.C	3.89	N.S	10.1	0.901	0.000185	Late embryogenesis abundant protein (LEA) family protein (AHRD V3.3 *** A0A2U1MVV9_ARTAN)
Solyc02g082990.4	Nagcarlang	N.C	11.9	N.S	25.6	0.851	6.22e-08	Late embryogenesis abundant protein (LEA) family protein (AHRD V3.3 *** A0A2U1ND46_ARTAN)
Solyc12g015880.2	Nagcarlang	N.C	5.2	N.S	8.88	0.802	0.000673	Heat shock protein 90-1
Solyc01g066410.1	Nagcarlang	N.C	5.93	N.S	10.5	0.779	0.000347	Pectinesterase (AHRD V3.3 *-* A0A2G3DFP5_CAPCH)
Solyc10g078930.2	Nagcarlang	N.C	3.96	N.S	6.98	0.754	0.00718	Activator of 90 kDa heat shock protein ATPase-like protein 1 (AHRD V3.3 *** A0A1J3GDI7_NOCCA)
Solyc05g052120.4	Nagcarlang	N.C	41.5	N.S	68.1	0.72	1.64e-10	Pectinesterase (AHRD V3.3 *** A0A2G2WTI6_CAPBA)
Solyc07g044870.4	Nagcarlang	N.C	40.5	N.S	75.4	0.702	2.95e-10	Pectin lyase-like superfamily protein (AHRD V3.3 *** Q9SFD2_ARATH)
Solyc12g044630.2	Nagcarlang	N.C	45.6	N.S	84.1	0.688	1.91e-10	Profilin (AHRD V3.3 *** A0A1U8F126_CAPAN)
Solyc03g116400.3	Nagcarlang	N.C	24.5	N.S	42	0.663	8.43e-07	late embryogenesis abundant protein-related / LEA protein-like protein (AHRD V3.3 --* AT1G52680.1)
Solyc03g007890.3	Nagcarlang	N.C	10.7	N.S	15.3	0.59	0.00502	class 2 small heat shock protein Le-HSP17.6
Solyc01g081588.1	Nagcarlang	N.C	17.8	N.S	24	0.565	0.00126	Non-specific lipid-transfer protein (AHRD V3.3 *** A0A2P4M3N9_QUESU)
Solyc06g083610.3	Nagcarlang	N.C	67.1	N.S	98.5	0.549	1.83e-07	Late embryogenesis abundant protein (LEA) family protein (AHRD V3.3 *** AT4G13230.1)
Solyc09g091040.3	Nagcarlang	N.C	198	N.S	269	0.449	6.56e-08	late embryogenesis abundant protein 2-like (AHRD V3.3 *** A0A2I4G2D7_9ROSI)
Solyc03g006360.3	Nagcarlang	N.C	78.8	N.S	112	0.402	0.000496	Auxin-repressed protein (AHRD V3.3 *** A9YSI8_TOBAC)
Solyc02g083440.3	Nagcarlang	N.C	71	N.S	91.8	0.365	0.00486	Peptidase A1 (AHRD V3.3 *-* A0A1R3GCG2_COCAP)
Solyc06g053990.1	Nagcarlang	N.C	79.4	N.S	99.1	0.355	0.0069	Unknown protein
Solyc09g065450.4	Nagcarlang	N.C	1170	N.S	1370	0.266	5.15e-05	Major pollen allergen Ole e 6 (AHRD V3.3 *** A0A2G3CCI9_CAPCH)
Solyc09g007780.1	Nagcarlang	N.C	1540	N.S	1830	0.235	0.000322	Unknown protein
Solyc01g066810.4	Nagcarlang	N.C	5790	N.S	6770	0.227	1.84e-06	Adenine nucleotide alpha hydrolases-like superfamily protein (AHRD V3.3 *** O82240_ARATH)
Solyc10g081670.2	Nagcarlang	N.C	1320	N.S	1520	0.203	0.0075	Plant invertase/pectin methylesterase inhibitor superfamily protein (AHRD V3.3 --* AT1G70540.1)
Solyc06g073010.3	Nagcarlang	N.C	3810	N.S	4330	0.179	0.00382	PGPS/D3 (AHRD V3.3 *-* Q9ZTN4_PETHY)
Solyc10g007270.4	Nagcarlang	N.C	11400	N.S	12900	0.173	0.000181	Pollen allergen Ole e 1 family (AHRD V3.3 *** A0A2U1LWI3_ARTAN)
Solyc05g023740.3	Nagcarlang	N.C	3090	N.S	2690	-0.202	0.00115	Arabidopsis mei2-like protein
Solyc07g005810.3	Nagcarlang	N.C	1310	N.S	1130	-0.212	0.00598	Eukaryotic translation initiation factor isoform 4G-1 (AHRD V3.3 *** A0A2G3BWP5_CAPCH)
Solyc04g079780.4	Nagcarlang	N.C	841	N.S	709	-0.244	0.00202	RBR-type E3 ubiquitin transferase (AHRD V3.3 *** A0A2G2X0V0_CAPBA)
Solyc02g064680.4	Nagcarlang	N.C	1460	N.S	1240	-0.249	0.000185	Calcium-transporting ATPase (AHRD V3.3 *** A0A1U8FI07_CAPAN)
Solyc09g066140.3	Nagcarlang	N.C	528	N.S	443	-0.262	0.00265	myosin-binding protein 1-like (AHRD V3.3 *-* A0A2I4FM60_9ROSI)
Solyc02g088290.4	Nagcarlang	N.C	550	N.S	460	-0.267	0.0016	ARF guanine-nucleotide exchange factor GNL1 (AHRD V3.3 *** A0A1U8FQ69_CAPAN)
Solyc05g051830.4	Nagcarlang	N.C	140	N.S	109	-0.351	0.00184	Agamous-like MADS-box protein AGL104 (AHRD V3.3 --* AG104_ARATH)
Solyc03g114110.4	Nagcarlang	N.C	148	N.S	116	-0.352	0.00138	Cyclic nucleotide-gated channel 16 (AHRD V3.3 *** A0A2U1QP75_ARTAN)
Solyc11g005980.3	Nagcarlang	N.C	7080	N.S	5570	-0.363	2.76e-17	Callose synthase (AHRD V3.3 *** K7PRK8_MAIZE)
Solyc09g074110.4	Nagcarlang	N.C	62.9	N.S	49.3	-0.381	0.00958	Piezo-type mechanosensitive ion channel-like protein (AHRD V3.3 *** A0A2G2ZWF8_CAPAN)
Solyc12g009900.3	Nagcarlang	N.C	238	N.S	175	-0.442	1.83e-07	zein-binding protein (Protein of unknown function%2C DUF593) (AHRD V3.3 *-* AT5G57830.1)
Solyc03g097710.4	Nagcarlang	N.C	20.4	N.S	14.5	-0.513	0.00958	meiosis chromosome segregation family protein (AHRD V3.3 *-* AT3G26890.8)
Solyc05g051825.1	Nagcarlang	N.C	31.5	N.S	21.5	-0.544	0.000454	MADS-box transcription factor (AHRD V3.3 *-* A0A2K3PNN3_TRIPR)
Solyc06g084610.4	Nagcarlang	N.C	13.9	N.S	10.8	-0.687	0.00132	Beta-carotene isomerase D27, chloroplastic (AHRD V3.3 *** A0A1J3JUT0_NOCCA)
Solyc02g088300.3	Nagcarlang	N.C	16.9	N.S	10.6	-0.693	0.00012	ERD (Early-responsive to dehydration stress) family protein (AHRD V3.3 *** A0A2U1KPJ9_ARTAN)
Solyc01g087500.3	Nagcarlang	N.C	17.5	N.S	11.7	-0.732	3e-05	DNA topoisomerase 2 (AHRD V3.3 *** A0A2G2XSS9_CAPBA)
Solyc01g094050.1	Nagcarlang	N.C	22.8	N.S	14.4	-0.76	9.43e-07	WD-40 repeat family protein / beige-like protein (AHRD V3.3 *-* AT2G45540.6)
Solyc02g083900.3	Nagcarlang	N.C	8.58	N.S	5.09	-0.769	0.00122	Transformation/transcription domain associated protein (AHRD V3.3 *** A0A2K3NKS8_TRIPR)
Solyc09g063030.4	Nagcarlang	N.C	4.33	N.S	2.27	-0.935	0.00324	CLIP-associated protein (AHRD V3.3 *** A0A2G2WGM7_CAPBA)
Solyc02g014190.4	Nagcarlang	N.C	9.5	N.S	5.24	-0.979	2.15e-06	Zinc finger C3HC4 type (RING finger) protein (AHRD V3.3 *** A0A2K3NPJ4_TRIPR)
Solyc06g062550.4	Nagcarlang	N.C	7.91	N.S	4.13	-1.052	1.78e-06	LES459817 putative phosphatase 14A
Solyc05g053570.4	Nagcarlang	N.C	25.4	N.S	10.3	-1.059	4.74e-12	Pleiotropic drug resistance protein (AHRD V3.3 *** C8CA13_CUCSA)
Solyc06g062560.2	Nagcarlang	N.C	2.92	N.S	1.42	-1.071	0.00774	phosphatase 14B
Solyc08g060920.4	Nagcarlang	N.C	4.48	N.S	2.13	-1.076	0.000206	IDS4-like
Solyc08g008490.4	Nagcarlang	N.C	4.02	N.S	1.53	-1.169	0.000347	Transducin/WD40 repeat-like superfamily protein (AHRD V3.3 *** A0A2U1PGZ8_ARTAN)
Solyc10g005970.1	Nagcarlang	N.C	5.13	N.S	2.35	-1.283	1.33e-05	Unknown protein
Solyc05g053590.4	Nagcarlang	N.C	8.4	N.S	3.54	-1.31	6.85e-09	Pleiotropic drug resistance protein (AHRD V3.3 *** C8CA13_CUCSA)
Solyc04g049860.2	Nagcarlang	N.C	2	N.S	0.601	-1.548	0.00303	hypothetical protein (AHRD V3.3 *-* AT5G13620.1)
Solyc12g007290.1	Nagcarlang	N.C	4.6	N.S	1.44	-1.572	1.3e-06	glutamic acid-rich protein-like (AHRD V3.3 *** XP_010314056.1)
Solyc06g075860.3	Nagcarlang	N.C	2.14	N.S	0.631	-1.718	0.00111	Protein yippee-like (AHRD V3.3 *-* A0A2I4FWI7_9ROSI)
Solyc09g059400.4	Nagcarlang	N.C	1.51	N.S	0.336	-1.783	0.00718	Unknown protein
Solyc07g042400.2	Nagcarlang	N.C	1.51	N.S	0.399	-1.86	0.000517	Unknown protein
Solyc03g150101.1	Nagcarlang	N.C	6.57	N.S	1.27	-2.044	2.87e-13	Unknown protein
Solyc08g074860.1	Nagcarlang	N.C	1.22	N.S	0.227	-2.31	0.00156	Eukaryotic translation initiation factor 3 subunit G (AHRD V3.3 *-* A0A1U8GXM8_CAPAN)
Solyc01g112000.4	Nagcarlang	N.C	1.88	N.S	0.21	-2.821	1.83e-07	expansin-like protein precursor 1
Solyc01g066425.1	Nagcarlang	N.C	22.9	N.S	1.9	-2.88	3.44e-30	Pectinesterase (AHRD V3.3 *-* A0A2G3DFP5_CAPCH)
Solyc03g113930.3	Tamaulipas	T.C	0.152	T.S	0.999	3.067	1.99e-06	22.0 kDa class IV heat shock protein (AHRD V3.3 *** A0A2G3ATG3_CAPCH)
Solyc06g005920.3	Tamaulipas	T.C	0.234	T.S	1.53	2.768	6.4e-10	PAR1-like protein (AHRD V3.3 *** A0A2U1KIG3_ARTAN)
Solyc11g020330.1	Tamaulipas	T.C	0.218	T.S	1.28	2.713	4.11e-07	leer-sHSP small heat shock protein
Solyc02g077670.3	Tamaulipas	T.C	0.196	T.S	1.01	2.483	5.03e-05	DnaJ-like protein (AHRD V3.3 *** Q9SP09_TOBAC)
Solyc09g015010.2	Tamaulipas	T.C	0.308	T.S	1.36	2.399	3.51e-07	Gag-asp_proteas domain-containing protein (AHRD V3.3 *-* A0A1Q3CQ35_CEPFO)
Solyc05g014280.4	Tamaulipas	T.C	0.209	T.S	0.976	2.312	0.000143	small heat shock protein 1
Solyc08g006280.2	Tamaulipas	T.C	3.02	T.S	11.2	2.21	5.84e-35	Transcriptional factor B3 family protein (AHRD V3.3 *-* A0A1P8AYQ9_ARATH)
Solyc09g092690.3	Tamaulipas	T.C	0.697	T.S	2.26	2.123	1.17e-09	Peptidylprolyl isomerase (AHRD V3.3 *** A0A2G2W2H8_CAPBA)
Solyc09g015000.4	Tamaulipas	T.C	0.329	T.S	1.17	2.111	4.13e-05	Class I heat shock protein (AHRD V3.3 *** A0A2K3KSJ8_TRIPR)
Solyc09g015020.1	Tamaulipas	T.C	0.261	T.S	0.885	2.022	0.00167	Class I heat shock protein (AHRD V3.3 *** A0A2K3KSJ8_TRIPR)
Solyc08g062960.4	Tamaulipas	T.C	0.501	T.S	1.66	1.657	0.00034	Heat shock transcription factor (AHRD V3.3 *-* A0A1Y1I763_KLENI)
Solyc01g066425.1	Tamaulipas	T.C	15.6	T.S	30	1.591	5.58e-35	Pectinesterase (AHRD V3.3 *-* A0A2G3DFP5_CAPCH)
Solyc01g102960.3	Tamaulipas	T.C	1.28	T.S	3.45	1.573	1.42e-08	22.0 kDa class IV heat shock protein (AHRD V3.3 *** A0A2G3ATG3_CAPCH)
Solyc06g083190.4	Tamaulipas	T.C	0.846	T.S	1.95	1.475	0.000211	Peptidylprolyl isomerase (AHRD V3.3 *** A0A2G3CCB5_CAPCH)
Solyc12g006950.2	Tamaulipas	T.C	2.4	T.S	7.05	1.428	1.26e-12	Sulfate transporter-like protein (AHRD V3.3 *** A0A2K3NYV6_TRIPR)
Solyc03g112140.4	Tamaulipas	T.C	0.865	T.S	2.21	1.392	8.83e-05	MAP kinase kinase kinase 27
Solyc06g007140.4	Tamaulipas	T.C	14.9	T.S	26.8	1.32	3.71e-34	Omega-3 fatty acid desaturase (AHRD V3.3 *** A9LNM9_SOLLC)
Solyc10g007260.3	Tamaulipas	T.C	2.43	T.S	6.78	1.253	2.67e-10	Ubiquitin-conjugating enzyme (AHRD V3.3 *** H6VUT0_9FABA)
Solyc06g076520.1	Tamaulipas	T.C	1.87	T.S	4.01	1.24	9.64e-07	Class I heat shock protein (AHRD V3.3 *** A0A2K3M3P7_TRIPR)
Solyc06g076560.2	Tamaulipas	T.C	1.44	T.S	2.88	1.102	0.000343	Class I heat shock protein (AHRD V3.3 *** A0A2K3M3P7_TRIPR)
Solyc08g062437.1	Tamaulipas	T.C	2.56	T.S	5.19	0.973	1.59e-05	17.9 kDa class II heat shock protein (AHRD V3.3 *** A0A2G3CY92_CAPCH)
Solyc03g117630.1	Tamaulipas	T.C	4.4	T.S	8.55	0.938	7.76e-08	Heat shock 70 kDa protein (AHRD V3.3 *** A0A1U8FVW2_CAPAN)
Solyc08g078690.3	Tamaulipas	T.C	1.43	T.S	2.6	0.869	0.00966	Vesicle-associated protein 1-1 (AHRD V3.3 *** A0A2G3BPQ3_CAPCH)
Solyc10g084170.1	Tamaulipas	T.C	2.49	T.S	4.28	0.846	0.00115	Bag family molecular chaperone regulator mitochondrial-like (AHRD V3.3 *** A0A2K3P7D1_TRIPR)
Solyc06g036290.3	Tamaulipas	T.C	8.5	T.S	14.8	0.836	1.31e-09	heat shock protein 90
Solyc00g500259.1	Tamaulipas	T.C	77	T.S	136	0.816	3.57e-37	Unknown protein
Solyc01g081250.3	Tamaulipas	T.C	3.45	T.S	6.2	0.809	0.000152	Glutathione S-transferase (AHRD V3.3 *** A0A200PVK3_9MAGN)
Solyc11g071830.2	Tamaulipas	T.C	2.61	T.S	4.29	0.799	0.00205	DnaJ protein like (AHRD V3.3 *** A0A2I0X6P9_9ASPA)
Solyc00g500234.1	Tamaulipas	T.C	73.8	T.S	127	0.782	2.45e-33	Unknown protein
Solyc00g500268.1	Tamaulipas	T.C	214	T.S	358	0.742	1.43e-48	Unknown protein
Solyc02g004000.1	Tamaulipas	T.C	58.3	T.S	94.7	0.704	2.12e-23	Regulator of rDNA transcription protein 15 (AHRD V3.3 *-* A0A2G2V0S9_CAPBA)
Solyc03g115230.3	Tamaulipas	T.C	8.15	T.S	11.5	0.668	5.14e-05	Solanum lycopersicum heat shock protein
Solyc01g104740.3	Tamaulipas	T.C	4.86	T.S	7.74	0.651	0.000765	Multiprotein-bridging factor 1c (AHRD V3.3 *** A0A1U8F6N4_CAPAN)
Solyc10g077000.3	Tamaulipas	T.C	18.5	T.S	27.4	0.578	1.35e-07	Dentin sialophosphoprotein (AHRD V3.3 *-* A0A1P8AZC3_ARATH)
Solyc10g018020.3	Tamaulipas	T.C	9.57	T.S	13.3	0.456	0.0065	homeobox-leucine zipper protein ROC8 (AHRD V3.3 *-* A0A2I4EBE3_9ROSI)
Solyc12g096060.2	Tamaulipas	T.C	17.5	T.S	22.8	0.379	0.00584	MOB kinase activator family (AHRD V3.3 *** A0A2U1N847_ARTAN)
Solyc06g053990.1	Tamaulipas	T.C	174	T.S	225	0.351	8.87e-09	Unknown protein
Solyc06g054000.1	Tamaulipas	T.C	511	T.S	641	0.316	1.23e-10	Unknown protein
Solyc10g005905.1	Tamaulipas	T.C	51	T.S	64	0.31	0.00109	Unknown protein
Solyc10g007270.4	Tamaulipas	T.C	10300	T.S	12800	0.306	1.86e-27	Pollen allergen Ole e 1 family (AHRD V3.3 *** A0A2U1LWI3_ARTAN)
Solyc02g014290.1	Tamaulipas	T.C	514	T.S	640	0.302	1.07e-09	Rapid ALkalinization Factor (AHRD V3.3 *-* K2REH2_MACPH)
Solyc05g053450.3	Tamaulipas	T.C	363	T.S	454	0.298	2.6e-08	late embryogenesis abundant protein 1-like (AHRD V3.3 *** A0A2I4DKC7_9ROSI)
Solyc06g008650.4	Tamaulipas	T.C	1900	T.S	2340	0.293	3.46e-14	Major pollen allergen Ole e 6 (AHRD V3.3 *** A0A2G2Z6T6_CAPAN)
Solyc12g014580.2	Tamaulipas	T.C	2980	T.S	3680	0.292	2.25e-16	Major pollen allergen Ole e 6 (AHRD V3.3 *** A0A2G3C3U1_CAPCH)
Solyc02g083440.3	Tamaulipas	T.C	66.4	T.S	81.8	0.291	0.00109	Peptidase A1 (AHRD V3.3 *-* A0A1R3GCG2_COCAP)
Solyc12g044630.2	Tamaulipas	T.C	384	T.S	469	0.287	6.65e-08	Profilin (AHRD V3.3 *** A0A1U8F126_CAPAN)
Solyc08g081970.3	Tamaulipas	T.C	452	T.S	553	0.285	3.61e-08	Arabinogalactan peptide 22 (AHRD V3.3 *** A0A2G3ADM4_CAPAN)
Solyc12g014240.3	Tamaulipas	T.C	6090	T.S	7460	0.283	1.4e-19	Pollen Ole e 1 allergen/extensin (AHRD V3.3 *** A0A200QS67_9MAGN)
Solyc12g062910.2	Tamaulipas	T.C	1550	T.S	1890	0.278	6.47e-12	Major pollen allergen Ole e 6 (AHRD V3.3 *** A0A2G3CCI9_CAPCH)
Solyc05g015530.3	Tamaulipas	T.C	691	T.S	839	0.274	8.97e-09	Endoplasmic reticulum, stress-associated Ramp4 (AHRD V3.3 *** A0A2U1N8N8_ARTAN)
Solyc06g067980.3	Tamaulipas	T.C	139	T.S	169	0.271	0.000147	repressed By RIM101 protein 1 (AHRD V3.3 --* XP_011091441.1)
Solyc01g009250.3	Tamaulipas	T.C	81	T.S	97.3	0.265	0.00235	hypothetical protein (AHRD V3.3 *** AT5G06380.1)
Solyc06g008667.1	Tamaulipas	T.C	3040	T.S	3660	0.261	6.97e-13	Major pollen allergen Ole e 6 (AHRD V3.3 *** A0A2G3C3U1_CAPCH)
Solyc09g007780.1	Tamaulipas	T.C	1530	T.S	1840	0.261	2.29e-10	Unknown protein
Solyc06g008660.3	Tamaulipas	T.C	1440	T.S	1730	0.26	3.74e-10	major pollen allergen Ole e 6-like (AHRD V3.3 -** XP_019069903.1)
Solyc01g066810.4	Tamaulipas	T.C	5800	T.S	6920	0.249	2e-14	Adenine nucleotide alpha hydrolases-like superfamily protein (AHRD V3.3 *** O82240_ARATH)
Solyc08g005040.1	Tamaulipas	T.C	391	T.S	465	0.247	9.37e-06	hypothetical protein (AHRD V3.3 *** AT5G46770.1)
Solyc01g094320.3	Tamaulipas	T.C	1370	T.S	1620	0.236	3.61e-08	LIM domain-containing protein (AHRD V3.3 *** A0A1Q3C877_CEPFO)
Solyc05g054160.1	Tamaulipas	T.C	168	T.S	198	0.235	0.00108	Unknown protein
Solyc01g099820.3	Tamaulipas	T.C	2140	T.S	2530	0.234	3.8e-09	Hypoxia-responsive family protein (AHRD V3.3 *** Q8LG60_ARATH)
Solyc06g073010.3	Tamaulipas	T.C	3650	T.S	4300	0.232	9.03e-11	PGPS/D3 (AHRD V3.3 *-* Q9ZTN4_PETHY)
Solyc08g008230.3	Tamaulipas	T.C	148	T.S	174	0.23	0.00242	Unknown protein
Solyc09g065450.4	Tamaulipas	T.C	1720	T.S	2020	0.229	3.61e-08	Major pollen allergen Ole e 6 (AHRD V3.3 *** A0A2G3CCI9_CAPCH)
Solyc06g084170.3	Tamaulipas	T.C	1610	T.S	1890	0.228	5.25e-08	Unknown protein
Solyc07g062560.3	Tamaulipas	T.C	5110	T.S	6040	0.228	1.79e-11	Pollen allergen Ole e 1 family (AHRD V3.3 *** A0A2U1LWI3_ARTAN)
Solyc06g009140.3	Tamaulipas	T.C	922	T.S	1090	0.227	1.53e-06	Late embryogenesis abundant protein Lea5 (AHRD V3.3 *** A0A1J3JXG8_NOCCA)
Solyc08g044540.1	Tamaulipas	T.C	200	T.S	233	0.22	0.00166	hypothetical protein (AHRD V3.3 *-* AT3G57450.1)
Solyc10g046990.2	Tamaulipas	T.C	604	T.S	703	0.219	3.31e-05	Unknown protein
Solyc06g008680.3	Tamaulipas	T.C	2310	T.S	2680	0.215	6.36e-08	Major pollen allergen Ole e 6 (AHRD V3.3 *** A0A2G3C3U1_CAPCH)
Solyc01g106600.2	Tamaulipas	T.C	1940	T.S	2260	0.215	1.82e-07	Pathogenesis-related protein 1 (AHRD V3.3 *** E2GEU1_9ROSI)
Solyc06g084180.3	Tamaulipas	T.C	2940	T.S	3410	0.211	3.61e-08	Major pollen allergen Ole e 6 (AHRD V3.3 *** A0A2G3CCI9_CAPCH)
Solyc09g091040.3	Tamaulipas	T.C	816	T.S	959	0.209	2.84e-05	late embryogenesis abundant protein 2-like (AHRD V3.3 *** A0A2I4G2D7_9ROSI)
Solyc07g045200.1	Tamaulipas	T.C	166	T.S	192	0.206	0.00818	Serine-rich protein-like protein (AHRD V3.3 *-* Q9FKU6_ARATH)
Solyc01g005050.4	Tamaulipas	T.C	270	T.S	312	0.204	0.0022	CASP-like protein (AHRD V3.3 --* A0A2G3CF58_CAPCH)
Solyc03g025750.4	Tamaulipas	T.C	556	T.S	640	0.201	0.000281	Actin-depolymerizing factor (AHRD V3.3 *** A0A2G2Z908_CAPAN)
Solyc12g013895.1	Tamaulipas	T.C	550	T.S	635	0.2	0.000332	Rapid alkalinization factor (AHRD V3.3 *** S8CZN7_9LAMI)
Solyc10g081670.2	Tamaulipas	T.C	1560	T.S	1790	0.198	7.04e-06	Plant invertase/pectin methylesterase inhibitor superfamily protein (AHRD V3.3 --* AT1G70540.1)
Solyc03g007470.4	Tamaulipas	T.C	818	T.S	940	0.198	0.000105	Ubiquitin conjugating enzyme (AHRD V3.3 *** B3TLN8_ELAGV)
Solyc06g068940.4	Tamaulipas	T.C	261	T.S	300	0.197	0.00378	Calcium-dependent lipid-binding (CaLB domain) family protein (AHRD V3.3 *** A0A2U1LMA8_ARTAN)
Solyc05g013980.3	Tamaulipas	T.C	2050	T.S	2350	0.196	2.63e-06	anther-specific protein BCP1-like (AHRD V3.3 -** XP_022855050.1)
Solyc03g095500.3	Tamaulipas	T.C	216	T.S	247	0.194	0.0079	Thioredoxin (AHRD V3.3 *** A0A2G2X4X1_CAPBA)
Solyc12g043160.3	Tamaulipas	T.C	209	T.S	239	0.193	0.00953	Translation machinery associated TMA7 (AHRD V3.3 *** A0A2U1KUC0_ARTAN)
Solyc06g083610.3	Tamaulipas	T.C	340	T.S	391	0.192	0.0029	Late embryogenesis abundant protein (LEA) family protein (AHRD V3.3 *** AT4G13230.1)
Solyc12g042780.2	Tamaulipas	T.C	1670	T.S	1910	0.191	1.49e-05	Cupredoxin (AHRD V3.3 *-* A0A2U1MB64_ARTAN)
Solyc02g069300.1	Tamaulipas	T.C	2780	T.S	3170	0.188	2.44e-06	pectinesterase inhibitor-like (AHRD V3.3 -** A0A1S3B9K9_CUCME)
Solyc05g005030.4	Tamaulipas	T.C	1810	T.S	2040	0.169	2e-04	Plant invertase/pectin methylesterase inhibitor superfamily protein (AHRD V3.3 -** AT1G23350.1)
Solyc04g007840.3	Tamaulipas	T.C	1630	T.S	1830	0.169	0.000288	hypothetical protein (AHRD V3.3 *** AT1G23150.1)
Solyc09g011800.3	Tamaulipas	T.C	2940	T.S	3300	0.165	6.83e-05	PAR1 (AHRD V3.3 *** A0A200R4T9_9MAGN)
Solyc09g092350.1	Tamaulipas	T.C	824	T.S	927	0.164	0.00348	PMEI domain-containing protein (AHRD V3.3 *-* A0A1Q3B489_CEPFO)
Solyc03g080030.4	Tamaulipas	T.C	2550	T.S	2840	0.158	0.000256	major latex allergen Hev b 5-like (AHRD V3.3 *-* XP_004235040.1)
Solyc06g150132.1	Tamaulipas	T.C	894	T.S	996	0.156	0.00556	Calcium-binding protein (AHRD V3.3 *-* Q9SCA1_LOTJA)
Solyc06g072420.3	Tamaulipas	T.C	6450	T.S	7140	0.146	6.85e-05	Purple acid phosphatase (AHRD V3.3 *** A0A2G2V7G9_CAPBA)
Solyc06g071400.3	Tamaulipas	T.C	7970	T.S	8750	0.134	0.000194	Bidirectional sugar transporter SWEET (AHRD V3.3 *** Q70ET6_SOLLC)
Solyc11g044740.2	Tamaulipas	T.C	2000	T.S	2200	0.133	0.00841	LIM domain-containing protein (AHRD V3.3 *** A0A1Q3ALK2_CEPFO)
Solyc10g017620.3	Tamaulipas	T.C	5490	T.S	5960	0.116	0.00645	fructokinase AY099454
Solyc07g005037.1	Tamaulipas	T.C	14400	T.S	13400	-0.105	0.00371	Plasma membrane ATPase (AHRD V3.3 *** A0A1U8H8S9_CAPAN)
Solyc07g005033.1	Tamaulipas	T.C	32700	T.S	30000	-0.128	2.64e-06	Plasma membrane ATPase (AHRD V3.3 *** A0A1U8H8S9_CAPAN)
Solyc01g099940.3	Tamaulipas	T.C	3800	T.S	3440	-0.141	0.000986	Pectinesterase (AHRD V3.3 *** A0A2G2XYC5_CAPAN)
Solyc04g081060.3	Tamaulipas	T.C	1900	T.S	1730	-0.144	0.00401	Kinesin-like protein NACK1 (AHRD V3.3 *** A0A2G2X190_CAPBA)
Solyc08g081820.4	Tamaulipas	T.C	3450	T.S	3120	-0.144	0.000952	Cation/H(+) antiporter 19 (AHRD V3.3 *** A0A2G2XJH4_CAPBA)
Solyc05g052320.4	Tamaulipas	T.C	1120	T.S	1010	-0.148	0.00872	cation/H(+) antiporter 3-like (AHRD V3.3 *** A0A2I4EAA6_9ROSI)
Solyc09g074820.4	Tamaulipas	T.C	4040	T.S	3650	-0.148	0.000325	Potassium transporter (AHRD V3.3 *** A0A2G3CTQ8_CAPCH)
Solyc06g009550.4	Tamaulipas	T.C	1100	T.S	985	-0.155	0.00474	Receptor-like protein kinase ANXUR2 (AHRD V3.3 *-* A0A2G2WHC2_CAPBA)
Solyc01g109530.3	Tamaulipas	T.C	1710	T.S	1540	-0.157	0.0013	Proline-rich receptor-like protein kinase PERK7 (AHRD V3.3 *** A0A2G2WA26_CAPBA)
Solyc02g014530.4	Tamaulipas	T.C	1130	T.S	1020	-0.158	0.00347	glycerophosphodiester phosphodiesterase GDPDL6-like (AHRD V3.3 *** A0A2I4H2H1_9ROSI)
Solyc06g070940.4	Tamaulipas	T.C	877	T.S	784	-0.163	0.0041	ABC transporter A family member 2 (AHRD V3.3 *** A0A2G2WLX3_CAPBA)
Solyc01g111540.4	Tamaulipas	T.C	758	T.S	677	-0.165	0.00462	Beta-galactosidase (AHRD V3.3 *** A0A2G3ATV6_CAPCH)
Solyc08g008240.3	Tamaulipas	T.C	768	T.S	685	-0.167	0.00401	Protein kinase family protein (AHRD V3.3 *** Q9FGG5_ARATH)
Solyc12g009960.2	Tamaulipas	T.C	1340	T.S	1200	-0.169	0.000747	Eukaryotic translation initiation factor isoform 4G-1 (AHRD V3.3 *** A0A2G3BP61_CAPCH)
Solyc01g087450.3	Tamaulipas	T.C	2420	T.S	2150	-0.169	0.000115	Arm repeat superfamily protein (AHRD V3.3 *** A0A2K3NMK6_TRIPR)
Solyc10g005220.3	Tamaulipas	T.C	465	T.S	414	-0.17	0.0099	RING/U-box superfamily protein (AHRD V3.3 *-* A0A1P8B041_ARATH)
Solyc10g074620.3	Tamaulipas	T.C	1100	T.S	974	-0.174	0.000844	Cellulose synthase (AHRD V3.3 *** A0A200PS93_9MAGN)
Solyc12g088830.3	Tamaulipas	T.C	1890	T.S	1680	-0.178	8.09e-05	Protein WEAK CHLOROPLAST MOVEMENT UNDER BLUE LIGHT 1 (AHRD V3.3 *** A0A1U8F3P2_CAPAN)
Solyc09g090480.2	Tamaulipas	T.C	1300	T.S	1150	-0.179	0.000246	DUF810 domain-containing protein (AHRD V3.3 *** A0A1Q3AX67_CEPFO),Pfam:PF05664
Solyc08g067930.4	Tamaulipas	T.C	664	T.S	588	-0.18	0.00202	Arf GTPase activating protein (AHRD V3.3 *-* A0A200PNF3_9MAGN)
Solyc03g005630.3	Tamaulipas	T.C	1890	T.S	1670	-0.181	5.91e-05	DUF810 domain-containing protein (AHRD V3.3 *** A0A1Q3AX67_CEPFO),Pfam:PF05664
Solyc01g109950.4	Tamaulipas	T.C	1800	T.S	1590	-0.181	6.67e-05	Kinase family protein (AHRD V3.3 *** D7MUJ9_ARALL)
Solyc06g009540.1	Tamaulipas	T.C	987	T.S	871	-0.181	0.00052	Receptor-like protein kinase FERONIA (AHRD V3.3 *** A0A1U8FIN9_CAPAN)
Solyc03g006130.3	Tamaulipas	T.C	629	T.S	556	-0.182	0.00199	Protein male discoverer 2 (AHRD V3.3 *** A0A1J6HZQ5_NICAT)
Solyc12g006000.1	Tamaulipas	T.C	402	T.S	355	-0.182	0.00576	Clathrin coat assembly protein (AHRD V3.3 *** A0A1U8E4Q4_CAPAN)
Solyc11g008490.3	Tamaulipas	T.C	593	T.S	523	-0.186	0.00155	Pumilio-like protein 2 (AHRD V3.3 *** A0A2G2Y5N2_CAPAN)
Solyc08g081980.4	Tamaulipas	T.C	493	T.S	434	-0.187	0.00243	Protein kinase family protein (AHRD V3.3 *** Q9FGG5_ARATH)
Solyc12g010360.2	Tamaulipas	T.C	5250	T.S	4610	-0.188	1.89e-07	Plasma membrane ATPase (AHRD V3.3 *** A0A1U8E8S2_CAPAN)
Solyc04g082000.4	Tamaulipas	T.C	408	T.S	358	-0.189	0.00328	Phospholipase D (AHRD V3.3 *** K4BVS9_SOLLC)
Solyc10g054050.3	Tamaulipas	T.C	1210	T.S	1070	-0.19	9.47e-05	Kinase family protein (AHRD V3.3 *** D7MUJ9_ARALL)
Solyc03g098630.4	Tamaulipas	T.C	422	T.S	370	-0.19	0.00276	DUF789 domain-containing protein (AHRD V3.3 *-* A0A1Q3BTC9_CEPFO)
Solyc02g020890.4	Tamaulipas	T.C	617	T.S	544	-0.192	0.000862	alpha/beta-Hydrolases superfamily protein (AHRD V3.3 *** AT3G19970.5)
Solyc04g014380.3	Tamaulipas	T.C	1200	T.S	1050	-0.194	6.02e-05	Kinase-interacting protein 1 (AHRD V3.3 *** A0A2G2V062_CAPBA)
Solyc05g047550.4	Tamaulipas	T.C	1340	T.S	1170	-0.194	3.89e-05	Protein kinase domain (AHRD V3.3 *** A0A200QZ79_9MAGN)
Solyc09g008000.3	Tamaulipas	T.C	337	T.S	294	-0.203	0.00187	ABC transporter G family member 24 (AHRD V3.3 *** A0A2G3BJ53_CAPCH)
Solyc02g065110.3	Tamaulipas	T.C	395	T.S	344	-0.204	0.00106	MAP kinase kinase kinase 15
Solyc04g015580.3	Tamaulipas	T.C	278	T.S	241	-0.205	0.0026	Arm repeat superfamily protein (AHRD V3.3 *** A0A2K3NTC9_TRIPR)
Solyc09g097830.4	Tamaulipas	T.C	197	T.S	171	-0.208	0.00643	Tetratricopeptide repeat (TPR)-like superfamily protein (AHRD V3.3 *** A0A2U1Q1B2_ARTAN)
Solyc12g098740.2	Tamaulipas	T.C	875	T.S	759	-0.209	4.01e-05	clathrin interactor EPSIN 2-like (AHRD V3.3 *** A0A2I4ETK3_9ROSI)
Solyc10g086430.3	Tamaulipas	T.C	212	T.S	184	-0.211	0.00426	WD40 repeat (AHRD V3.3 *** A0A200QES9_9MAGN)
Solyc03g006530.3	Tamaulipas	T.C	604	T.S	523	-0.211	0.000134	Hydroxyproline-rich glycoprotein family protein (AHRD V3.3 *-* A0A1P8AWR9_ARATH)
Solyc02g064680.4	Tamaulipas	T.C	1460	T.S	1260	-0.212	2.33e-06	Calcium-transporting ATPase (AHRD V3.3 *** A0A1U8FI07_CAPAN)
Solyc07g005810.3	Tamaulipas	T.C	1230	T.S	1060	-0.214	4.46e-06	Eukaryotic translation initiation factor isoform 4G-1 (AHRD V3.3 *** A0A2G3BWP5_CAPCH)
Solyc12g044920.3	Tamaulipas	T.C	1000	T.S	864	-0.214	1.1e-05	Phospholipid-transporting ATPase (AHRD V3.3 *** A0A1U8F7U0_CAPAN)
Solyc06g053750.3	Tamaulipas	T.C	191	T.S	164	-0.217	0.00404	MATH domain-containing protein (AHRD V3.3 *** A0A1Q3BTU7_CEPFO)
Solyc04g079780.4	Tamaulipas	T.C	842	T.S	727	-0.222	9.37e-06	RBR-type E3 ubiquitin transferase (AHRD V3.3 *** A0A2G2X0V0_CAPBA)
Solyc01g108900.4	Tamaulipas	T.C	6410	T.S	5520	-0.223	3.25e-11	pollen leucine rich repeat domain-extensin
Solyc01g100120.4	Tamaulipas	T.C	865	T.S	740	-0.226	5.08e-06	Kinesin-like protein (AHRD V3.3 *** A0A2G2XY75_CAPAN)
Solyc03g034060.4	Tamaulipas	T.C	764	T.S	658	-0.226	9.62e-06	Proline-rich receptor-like protein kinase PERK5 (AHRD V3.3 *** A0A2G3CKX6_CAPCH)
Solyc10g009140.3	Tamaulipas	T.C	317	T.S	273	-0.228	0.000263	Hydroxyproline-rich glycoprotein family protein (AHRD V3.3 *-* A0A1P8AWR9_ARATH)
Solyc10g080100.3	Tamaulipas	T.C	346	T.S	296	-0.228	0.000193	Villin (AHRD V3.3 *** A0A2P5EN25_TREOI)
Solyc04g077400.4	Tamaulipas	T.C	169	T.S	145	-0.228	0.0029	ERD (Early-responsive to dehydration stress) family protein (AHRD V3.3 *** A0A1P8B4I8_ARATH)
Solyc12g096580.2	Tamaulipas	T.C	401	T.S	343	-0.23	9.53e-05	Potassium transporter (AHRD V3.3 *** A0A2G2VJC7_CAPBA)
Solyc08g080520.4	Tamaulipas	T.C	489	T.S	417	-0.231	3.91e-05	DUF810 domain-containing protein (AHRD V3.3 *** A0A1Q3BM37_CEPFO),Pfam:PF05664
Solyc07g053980.3	Tamaulipas	T.C	143	T.S	122	-0.232	0.00408	Callose synthase 12 (AHRD V3.3 *** A0A1U8HBE5_CAPAN)
Solyc10g084540.3	Tamaulipas	T.C	250	T.S	214	-0.233	0.00046	Pentatricopeptide repeat (AHRD V3.3 *-* A0A200R560_9MAGN)
Solyc12g088950.3	Tamaulipas	T.C	211	T.S	182	-0.237	0.000704	Leucine-rich repeat family protein (AHRD V3.3 *-* A0A061GNA0_THECC)
Solyc11g065260.3	Tamaulipas	T.C	316	T.S	269	-0.238	0.000114	DnaJ domain-containing protein/TPR_1 domain-containing protein/TPR_11 domain-containing protein (AHRD V3.3 *** A0A1Q3BB58_CEPFO)
Solyc03g121810.2	Tamaulipas	T.C	154	T.S	131	-0.239	0.00214	Phospholipid-transporting ATPase (AHRD V3.3 *** A0A2G2ZVU5_CAPAN)
Solyc11g044480.2	Tamaulipas	T.C	137	T.S	116	-0.239	0.00314	Arm repeat superfamily protein (AHRD V3.3 *** A0A2K3NTC9_TRIPR)
Solyc05g023740.3	Tamaulipas	T.C	3210	T.S	2710	-0.244	8.14e-11	Arabidopsis mei2-like protein
Solyc10g050470.3	Tamaulipas	T.C	1310	T.S	1110	-0.246	3.37e-08	Leucine-rich repeat (AHRD V3.3 *-* A0A200R9L9_9MAGN)
Solyc02g014350.4	Tamaulipas	T.C	145	T.S	122	-0.246	0.00169	P-loop containing nucleoside triphosphate hydrolases superfamily protein (AHRD V3.3 *** F4JCC9_ARATH)
Solyc09g091460.3	Tamaulipas	T.C	147	T.S	124	-0.251	0.00115	PB1 domain-containing protein tyrosine kinase (AHRD V3.3 *-* F4I5S1_ARATH)
Solyc02g067040.3	Tamaulipas	T.C	397	T.S	336	-0.252	1.05e-05	Protein ENHANCED DISEASE RESISTANCE 2-like (AHRD V3.3 *** A0A1J3E5X3_NOCCA)
Solyc01g095020.3	Tamaulipas	T.C	222	T.S	186	-0.254	0.000129	chorismate synthase (AHRD V3.3 *** AT4G01290.2)
Solyc11g033270.2	Tamaulipas	T.C	104	T.S	87	-0.259	0.00254	MAP kinase kinase kinase 82
Solyc08g014580.4	Tamaulipas	T.C	123	T.S	103	-0.26	0.00134	type I inositol polyphosphate 5-phosphatase 12-like (AHRD V3.3 *** A0A2I4G632_9ROSI)
Solyc09g091080.4	Tamaulipas	T.C	222	T.S	186	-0.261	7.2e-05	Myosin-7 (AHRD V3.3 *** A0A2G2ZU45_CAPAN)
Solyc06g083960.3	Tamaulipas	T.C	266	T.S	221	-0.269	1.21e-05	Myosin-5 (AHRD V3.3 *** A0A2G2ZEU6_CAPAN)
Solyc02g062330.3	Tamaulipas	T.C	393	T.S	326	-0.272	1.25e-06	Kinesin-like protein (AHRD V3.3 *** A0A2G2XB42_CAPBA)
Solyc04g080170.3	Tamaulipas	T.C	184	T.S	152	-0.272	8.22e-05	Protein kinase domain (AHRD V3.3 *** A0A200R7I6_9MAGN)
Solyc11g006220.2	Tamaulipas	T.C	73.9	T.S	61.4	-0.273	0.004	Myosin family protein (AHRD V3.3 *** A0A2U1N6F7_ARTAN)
Solyc05g010120.4	Tamaulipas	T.C	159	T.S	132	-0.275	0.000139	Phospholipid-transporting ATPase (AHRD V3.3 *** A0A1U8EJE6_CAPAN)
Solyc06g070930.3	Tamaulipas	T.C	412	T.S	341	-0.275	6.93e-07	ABC transporter A family member 7 (AHRD V3.3 *-* A0A2G2WRJ6_CAPBA)
Solyc10g074940.2	Tamaulipas	T.C	357	T.S	296	-0.276	1.29e-06	Phospholipid-transporting ATPase (AHRD V3.3 *** A0A2G2YKN5_CAPAN)
Solyc02g088290.4	Tamaulipas	T.C	554	T.S	457	-0.278	7.25e-08	ARF guanine-nucleotide exchange factor GNL1 (AHRD V3.3 *** A0A1U8FQ69_CAPAN)
Solyc06g084210.3	Tamaulipas	T.C	99.6	T.S	82.5	-0.279	0.000992	Sec24-like transport protein (AHRD V3.3 *** A0A2U1NGT5_ARTAN)
Solyc02g082100.4	Tamaulipas	T.C	79.9	T.S	66.1	-0.279	0.0023	RING/U-box superfamily protein (AHRD V3.3 *-* F4IIX4_ARATH)
Solyc05g006640.4	Tamaulipas	T.C	68.7	T.S	56.3	-0.286	0.00277	Phospholipid-transporting ATPase (AHRD V3.3 *** A0A1U8EVI0_CAPAN)
Solyc01g087440.3	Tamaulipas	T.C	518	T.S	425	-0.287	3.61e-08	Arm repeat superfamily protein (AHRD V3.3 *-* A0A2K3NTC9_TRIPR)
Solyc10g055450.2	Tamaulipas	T.C	53.2	T.S	43.6	-0.288	0.00626	E3 ubiquitin-protein ligase UPL3 (AHRD V3.3 *** A0A2G3ATT0_CAPCH)
Solyc12g049590.2	Tamaulipas	T.C	145	T.S	119	-0.291	6.83e-05	1-phosphatidylinositol-3-phosphate 5-kinase FAB1B (AHRD V3.3 *** A0A2G3B3H7_CAPCH)
Solyc06g074730.4	Tamaulipas	T.C	168	T.S	137	-0.301	1.16e-05	Argonaute 5
Solyc03g083590.3	Tamaulipas	T.C	80.9	T.S	65.7	-0.303	0.000553	Protein kinase domain (AHRD V3.3 *** A0A200RA50_9MAGN)
Solyc09g074950.3	Tamaulipas	T.C	60.4	T.S	48.9	-0.306	0.00161	P-loop containing nucleoside triphosphate hydrolases superfamily protein (AHRD V3.3 *** A0A2U1N2C4_ARTAN)
Solyc03g115550.3	Tamaulipas	T.C	40.8	T.S	32.6	-0.315	0.00585	Unknown protein
Solyc09g092130.3	Tamaulipas	T.C	66.2	T.S	53.1	-0.32	0.000501	Sucrose phosphate synthase (AHRD V3.3 *** A0A0B5L7E2_LILDA)
Solyc08g029130.3	Tamaulipas	T.C	35.6	T.S	28.5	-0.324	0.00702	Chromatin remodeling factor (AHRD V3.3 *** A0A178UZA8_ARATH)
Solyc03g111570.4	Tamaulipas	T.C	192	T.S	153	-0.328	3.45e-07	callose synthase 10 (AHRD V3.3 *** A0A2I4E5T8_9ROSI)
Solyc01g091460.3	Tamaulipas	T.C	46.4	T.S	37	-0.33	0.00169	Brefeldin A-inhibited guanine nucleotide-exchange protein 2 (AHRD V3.3 *** A0A2G2XNT6_CAPBA)
Solyc11g010560.3	Tamaulipas	T.C	29.7	T.S	23.6	-0.335	0.00961	Kinesin (AHRD V3.3 *** A0A200PNK3_9MAGN)
Solyc06g005960.4	Tamaulipas	T.C	43.6	T.S	34.5	-0.342	0.00129	Dentin sialophosphoprotein (AHRD V3.3 *-* F4HQL7_ARATH)
Solyc09g066140.3	Tamaulipas	T.C	565	T.S	447	-0.348	2.08e-12	myosin-binding protein 1-like (AHRD V3.3 *-* A0A2I4FM60_9ROSI)
Solyc07g063590.4	Tamaulipas	T.C	123	T.S	97.9	-0.348	1.65e-06	Myosin-2 (AHRD V3.3 *** A0A2G3C394_CAPCH)
Solyc03g046450.3	Tamaulipas	T.C	30.7	T.S	24.3	-0.35	0.0046	ARM repeat superfamily protein (AHRD V3.3 *** A0A2U1PEI4_ARTAN)
Solyc09g150101.1	Tamaulipas	T.C	34.4	T.S	26.9	-0.353	0.0025	Unknown protein
Solyc01g094060.4	Tamaulipas	T.C	57.3	T.S	44.8	-0.353	0.000143	BEACH domain-containing protein (AHRD V3.3 *-* A0A2U1L7V5_ARTAN)
Solyc01g112350.3	Tamaulipas	T.C	54.3	T.S	42.7	-0.355	0.000177	Brefeldin A-inhibited guanine nucleotide-exchange protein 4 (AHRD V3.3 *** A0A2G2XW39_CAPAN)
Solyc03g097260.4	Tamaulipas	T.C	38.4	T.S	30.1	-0.356	0.0013	RING/FYVE/PHD zinc finger superfamily protein (AHRD V3.3 *** F4IYH6_ARATH)
Solyc10g007290.4	Tamaulipas	T.C	27.7	T.S	21.3	-0.36	0.00521	phosphoenolpyruvate carboxylase (AHRD V3.3 *** A0A1S3YLC5_TOBAC)
Solyc12g009900.3	Tamaulipas	T.C	304	T.S	239	-0.367	3.81e-11	zein-binding protein (Protein of unknown function%2C DUF593) (AHRD V3.3 *-* AT5G57830.1)
Solyc12g017440.1	Tamaulipas	T.C	25.8	T.S	20	-0.369	0.00474	ENTH/ANTH/VHS superfamily protein (AHRD V3.3 *** A0A2U1N0Z9_ARTAN)
Solyc03g123440.3	Tamaulipas	T.C	27.7	T.S	21.4	-0.37	0.00348	DNA demethylase 4
Solyc12g035670.3	Tamaulipas	T.C	25.8	T.S	20.2	-0.37	0.00455	SAC3/GANP/Nin1/mts3/eIF-3 p25 (AHRD V3.3 *** A0A200QLU7_9MAGN)
Solyc03g097710.4	Tamaulipas	T.C	36.2	T.S	28	-0.373	0.000798	meiosis chromosome segregation family protein (AHRD V3.3 *-* AT3G26890.8)
Solyc02g078640.3	Tamaulipas	T.C	89.9	T.S	69.5	-0.373	1.99e-06	Protein MOR1 (AHRD V3.3 *** A0A2G3D6B7_CAPCH)
Solyc02g087360.4	Tamaulipas	T.C	69.6	T.S	53.7	-0.376	9.81e-06	Paired amphipathic helix protein Sin3-like 1 (AHRD V3.3 *** A0A1U8G0F5_CAPAN)
Solyc01g008320.3	Tamaulipas	T.C	24.8	T.S	19.2	-0.378	0.0041	Shoot gravitropism 2 (SGR2) protein (AHRD V3.3 *** A0A072UJS6_MEDTR)
Solyc05g053600.3	Tamaulipas	T.C	349	T.S	267	-0.378	2.08e-12	Pleiotropic drug resistance protein (AHRD V3.3 *** C8CA13_CUCSA)
Solyc11g006390.2	Tamaulipas	T.C	30.2	T.S	23.2	-0.382	0.00142	nuclear pore complex protein NUP1-like (AHRD V3.3 *-* A0A2I4DIV8_9ROSI)
Solyc05g051830.4	Tamaulipas	T.C	143	T.S	110	-0.382	2.05e-08	Agamous-like MADS-box protein AGL104 (AHRD V3.3 --* AG104_ARATH)
Solyc01g097320.3	Tamaulipas	T.C	36.9	T.S	28.2	-0.385	0.000389	Mediator of RNA polymerase II transcription subunit 14 (AHRD V3.3 *** A0A2G2W775_CAPBA)
Solyc04g078050.3	Tamaulipas	T.C	21.9	T.S	16.7	-0.392	0.00431	TBP-associated factor 4B (AHRD V3.3 *** A0A1P8AM38_ARATH)
Solyc01g067600.3	Tamaulipas	T.C	24.7	T.S	18.9	-0.394	0.00242	Zinc finger, CW-type (AHRD V3.3 *-* A0A2U1Q0A5_ARTAN)
Solyc11g017460.3	Tamaulipas	T.C	75.8	T.S	57.8	-0.397	1.23e-06	U-box domain-containing protein 13 (AHRD V3.3 *** A0A1J3H637_NOCCA)
Solyc04g080240.4	Tamaulipas	T.C	18.9	T.S	14.5	-0.398	0.007	GYF domain-containing protein (AHRD V3.3 *-* A0A1Q3BQE0_CEPFO)
Solyc06g060160.3	Tamaulipas	T.C	90.1	T.S	68.6	-0.399	2.75e-07	CELLULOSE SYNTHASE INTERACTIVE 3 (AHRD V3.3 *-* AT1G77460.4)
Solyc09g074110.4	Tamaulipas	T.C	56.7	T.S	42.8	-0.409	4.09e-06	Piezo-type mechanosensitive ion channel-like protein (AHRD V3.3 *** A0A2G2ZWF8_CAPAN)
Solyc12g019080.3	Tamaulipas	T.C	33.3	T.S	25	-0.414	0.000177	type I inositol polyphosphate 5-phosphatase 12-like (AHRD V3.3 *** A0A2I4G632_9ROSI)
Solyc11g043130.2	Tamaulipas	T.C	30.4	T.S	22.6	-0.427	0.000183	Phosphatidylinositol 4-kinase alpha 1 (AHRD V3.3 *** A0A2G2VJB2_CAPBA)
Solyc06g083420.3	Tamaulipas	T.C	19.5	T.S	14.5	-0.427	0.00235	Helicase/SANT-associated DNA-binding protein (AHRD V3.3 *** A0A2K3NM86_TRIPR)
Solyc11g005980.3	Tamaulipas	T.C	7130	T.S	5330	-0.428	1.09e-44	Callose synthase (AHRD V3.3 *** K7PRK8_MAIZE)
Solyc08g077700.3	Tamaulipas	T.C	57.7	T.S	43.1	-0.433	6.99e-07	Eukaryotic translation initiation factor 4G (AHRD V3.3 *** A0A1J3IRB2_NOCCA)
Solyc05g015930.4	Tamaulipas	T.C	16.5	T.S	12.4	-0.435	0.00403	GYF-like protein (AHRD V3.3 *** A0A2U1P3D7_ARTAN)
Solyc04g072043.1	Tamaulipas	T.C	13.9	T.S	10.3	-0.436	0.00876	Polyadenylate-binding protein (AHRD V3.3 *** A0A2G3CN64_CAPCH)
Solyc02g086330.4	Tamaulipas	T.C	17.3	T.S	12.7	-0.447	0.0022	HEAT repeat-containing protein-like (AHRD V3.3 *** Q5QMW8_ORYSJ)
Solyc02g088300.3	Tamaulipas	T.C	15.2	T.S	11.1	-0.45	0.004	ERD (Early-responsive to dehydration stress) family protein (AHRD V3.3 *** A0A2U1KPJ9_ARTAN)
Solyc05g051825.1	Tamaulipas	T.C	29.1	T.S	21.1	-0.454	6.83e-05	MADS-box transcription factor (AHRD V3.3 *-* A0A2K3PNN3_TRIPR)
Solyc01g111530.3	Tamaulipas	T.C	19	T.S	13.8	-0.464	0.000755	E3 ubiquitin-protein ligase UPL3 (AHRD V3.3 *** A0A1U8E9F6_CAPAN)
Solyc06g050510.3	Tamaulipas	T.C	15.8	T.S	11.3	-0.478	0.0013	SNF2 domain-containing protein CLASSY 1 (AHRD V3.3 *** A0A1U8GWM4_CAPAN)
Solyc06g008960.3	Tamaulipas	T.C	11.1	T.S	7.94	-0.487	0.00584	mediator of RNA polymerase II transcription subunit 33A-like (AHRD V3.3 *** A0A2I4F330_9ROSI)
Solyc07g042030.2	Tamaulipas	T.C	18.9	T.S	13.5	-0.495	0.000222	Pentatricopeptide repeat-containing protein (AHRD V3.3 *-* A0A2U1MA82_ARTAN)
Solyc01g009280.4	Tamaulipas	T.C	9.82	T.S	6.96	-0.498	0.00796	Serine/threonine-protein phosphatase (AHRD V3.3 *** A0A2G2XPM1_CAPBA)
Solyc07g032230.3	Tamaulipas	T.C	9.96	T.S	7.06	-0.5	0.00702	Regulator of Vps4 activity in the MVB pathway protein (AHRD V3.3 *-* F4ITF9_ARATH)
Solyc08g006420.3	Tamaulipas	T.C	20.5	T.S	14.4	-0.513	5.88e-05	nucleoporin (AHRD V3.3 *** AT4G31570.3)
Solyc12g088010.2	Tamaulipas	T.C	9.63	T.S	6.58	-0.549	0.00242	HYPERSENSITIVE TO PI STARVATION 4 (AHRD V3.3 *** F4I9T6_ARATH)
Solyc09g065700.3	Tamaulipas	T.C	79.4	T.S	54.5	-0.551	4.63e-13	BEACH domain (AHRD V3.3 *** A0A200Q4J4_9MAGN)
Solyc09g009370.4	Tamaulipas	T.C	9.5	T.S	6.48	-0.554	0.00221	Calcium-dependent lipid-binding family protein (AHRD V3.3 *-* A0A1P8AMQ8_ARATH)
Solyc08g081120.4	Tamaulipas	T.C	8.69	T.S	5.93	-0.555	0.00336	Kinesin-4 (AHRD V3.3 *-* A0A2G3DAJ4_CAPCH)
Solyc04g071660.3	Tamaulipas	T.C	11	T.S	7.44	-0.557	0.000944	hypothetical protein (AHRD V3.3 *-* AT1G76740.1)
Solyc06g071350.4	Tamaulipas	T.C	9.05	T.S	6.17	-0.567	0.0021	Bromo adjacent homology (BAH) domain (AHRD V3.3 *-* A0A200QLJ5_9MAGN)
Solyc12g017830.3	Tamaulipas	T.C	19.3	T.S	12.9	-0.576	5.38e-06	Brefeldin A-inhibited guanine nucleotide-exchange protein 5 (AHRD V3.3 *** A0A2G2ZX29_CAPAN)
Solyc06g068230.4	Tamaulipas	T.C	7.91	T.S	5.39	-0.585	0.00269	Tetratricopeptide repeat (TPR)-like superfamily protein (AHRD V3.3 *** A0A2U1MYN5_ARTAN)
Solyc07g064480.1	Tamaulipas	T.C	6.15	T.S	4.1	-0.593	0.00851	DTW domain-containing protein (AHRD V3.3 *** A0A1Q3BKT5_CEPFO)
Solyc07g064030.4	Tamaulipas	T.C	6.96	T.S	4.6	-0.594	0.00426	Kinesin-like protein (AHRD V3.3 *** A0A2G2WF79_CAPBA)
Solyc07g065630.4	Tamaulipas	T.C	18.5	T.S	12.5	-0.606	2.22e-06	E3 ubiquitin-protein ligase UPL2 (AHRD V3.3 *** A0A2G3C2F6_CAPCH)
Solyc01g112340.3	Tamaulipas	T.C	11.7	T.S	7.57	-0.632	5.32e-05	Brefeldin A-inhibited guanine nucleotide-exchange protein 4 (AHRD V3.3 *-* A0A2G2XW39_CAPAN)
Solyc01g006360.4	Tamaulipas	T.C	22.3	T.S	14.1	-0.669	8.97e-09	Callose synthase 9 (AHRD V3.3 *** A0A2G3AHT3_CAPAN)
Solyc03g124010.3	Tamaulipas	T.C	12.6	T.S	7.79	-0.706	1.58e-06	p-loop containing nucleoside triphosphate hydrolases superfamily protein (AHRD V3.3 *** A0A1P8AT95_ARATH)
Solyc02g083900.3	Tamaulipas	T.C	5.37	T.S	3.24	-0.717	0.00142	Transformation/transcription domain associated protein (AHRD V3.3 *** A0A2K3NKS8_TRIPR)
Solyc02g092950.3	Tamaulipas	T.C	14.1	T.S	8.49	-0.718	2.92e-07	Microtubule-associated protein RP/EB family member 1C (AHRD V3.3 *** A0A2G2XGZ8_CAPBA)
Solyc06g083410.4	Tamaulipas	T.C	4.57	T.S	2.78	-0.719	0.00348	protein XRI1 (AHRD V3.3 *** A0A2I4G9Z5_9ROSI)
Solyc09g010830.4	Tamaulipas	T.C	3.93	T.S	2.34	-0.745	0.00501	E3 ubiquitin-protein ligase ubr3-like protein (AHRD V3.3 *** A0A2K3NLG7_TRIPR)
Solyc06g069660.2	Tamaulipas	T.C	4.57	T.S	2.85	-0.748	0.002	Formin-like protein (AHRD V3.3 *-* A0A2I4H3Z2_9ROSI)
Solyc08g074520.2	Tamaulipas	T.C	7.4	T.S	4.41	-0.75	5.36e-05	TATA-binding protein-associated factor BTAF1 (AHRD V3.3 *** A0A2G2XMM1_CAPBA)
Solyc01g094050.1	Tamaulipas	T.C	21.2	T.S	12.6	-0.764	6.36e-11	WD-40 repeat family protein / beige-like protein (AHRD V3.3 *-* AT2G45540.6)
Solyc06g062540.3	Tamaulipas	T.C	4.28	T.S	2.86	-0.782	0.00241	phosphatase (psi14C gene)
Solyc04g051570.4	Tamaulipas	T.C	4.81	T.S	2.8	-0.789	0.000625	spatacsin carboxy-terminus protein (AHRD V3.3 *** AT4G39420.2)
Solyc07g065600.3	Tamaulipas	T.C	5.85	T.S	3.36	-0.806	9.19e-05	Inner centromere protein, ARK-binding region protein (AHRD V3.3 *-* A0A1P8BE82_ARATH)
Solyc04g076620.4	Tamaulipas	T.C	8.16	T.S	4.57	-0.841	1.21e-06	E3 ubiquitin-protein ligase UPL2 (AHRD V3.3 *** A0A2G2X032_CAPBA)
Solyc06g062550.4	Tamaulipas	T.C	3.19	T.S	1.9	-0.857	0.00444	LES459817 putative phosphatase 14A
Solyc01g103990.3	Tamaulipas	T.C	4.94	T.S	2.46	-0.911	6.35e-05	T-complex protein 11 (AHRD V3.3 *** A0A2U1QKZ8_ARTAN)
Solyc02g014190.4	Tamaulipas	T.C	8.52	T.S	4.53	-0.923	3.62e-08	Zinc finger C3HC4 type (RING finger) protein (AHRD V3.3 *** A0A2K3NPJ4_TRIPR)
Solyc02g088170.2	Tamaulipas	T.C	2.25	T.S	1.18	-0.939	0.00871	Pentatricopeptide repeat-containing protein (AHRD V3.3 *** A0A2G3ACG6_CAPAN)
Solyc01g087500.3	Tamaulipas	T.C	6.76	T.S	3.39	-0.983	1.08e-07	DNA topoisomerase 2 (AHRD V3.3 *** A0A2G2XSS9_CAPBA)
Solyc11g045160.3	Tamaulipas	T.C	2.43	T.S	1.24	-0.994	0.00261	Vacuolar protein sorting-associated protein, putative (DUF1162) (AHRD V3.3 *** A0A1P8BEF0_ARATH)
Solyc04g074720.3	Tamaulipas	T.C	2.11	T.S	1.02	-1.063	0.00328	FAM91 carboxy-terminus protein (AHRD V3.3 *** AT1G35220.3)
Solyc12g014500.3	Tamaulipas	T.C	2.09	T.S	1.01	-1.121	0.00356	S-adenosyl-L-methionine-dependent methyltransferases superfamily protein (AHRD V3.3 *** A0A2U1QHF5_ARTAN)
Solyc05g053590.4	Tamaulipas	T.C	5.99	T.S	2.48	-1.124	8.27e-08	Pleiotropic drug resistance protein (AHRD V3.3 *** C8CA13_CUCSA)
Solyc02g087980.3	Tamaulipas	T.C	1.81	T.S	0.847	-1.147	0.0036	Structural maintenance of chromosomes protein (AHRD V3.3 *** A0A2G3ACB4_CAPAN)
Solyc05g053570.4	Tamaulipas	T.C	23.7	T.S	7.79	-1.279	7.39e-26	Pleiotropic drug resistance protein (AHRD V3.3 *** C8CA13_CUCSA)
Solyc12g098630.2	Tamaulipas	T.C	1.47	T.S	0.578	-1.362	0.00268	Kinesin-like protein KIN12B (AHRD V3.3 *** A0A2G3B535_CAPCH)
Solyc10g083860.3	Tamaulipas	T.C	1.47	T.S	0.507	-1.52	0.000529	Glycosyltransferase (AHRD V3.3 *** A0A2I4E2Y0_9ROSI)
Solyc10g005970.1	Tamaulipas	T.C	2.56	T.S	0.805	-1.559	3.41e-06	Unknown protein
Solyc03g150101.1	Tamaulipas	T.C	4.29	T.S	1.17	-1.779	3.95e-09	Unknown protein
Solyc12g007290.1	Tamaulipas	T.C	3.09	T.S	0.784	-1.868	6.5e-08	glutamic acid-rich protein-like (AHRD V3.3 *** XP_010314056.1)
Solyc07g065530.1	Tamaulipas	T.C	0.847	T.S	0.216	-2.017	0.00403	flocculation protein FLO11 (AHRD V3.3 *** XP_004244068.1)
Solyc04g049860.2	Tamaulipas	T.C	0.987	T.S	0.159	-2.45	0.000992	hypothetical protein (AHRD V3.3 *-* AT5G13620.1)
Solyc05g013430.1	Tamaulipas	T.C	1.01	T.S	0.0774	-3.412	2.83e-05	MYB-related transcription factor (AHRD V3.3 *-* B4FK82_MAIZE)
Solyc06g084610.4	Tamaulipas	T.C	9.52	T.S	0.612	-3.789	2.69e-77	Beta-carotene isomerase D27, chloroplastic (AHRD V3.3 *** A0A1J3JUT0_NOCCA)
